<?xml version="1.0" encoding="utf-8"  standalone="no"?>
<!DOCTYPE svg PUBLIC "-//W3C//DTD SVG 1.1//EN" 
 "http://www.w3.org/Graphics/SVG/1.1/DTD/svg11.dtd">
<!--
  Copyright (c) 2010, 2023 Contributors to the Eclipse Foundation

  See the NOTICE file(s) distributed with this work for additional
  information regarding copyright ownership.

  This program and the accompanying materials are made available under the terms
  of the MIT License which is available at https://opensource.org/licenses/MIT

  SPDX-License-Identifier: MIT
-->
<svg width="600" height="480" viewBox="0 0 600 480"
 xmlns="http://www.w3.org/2000/svg"
 xmlns:xlink="http://www.w3.org/1999/xlink"
>

<title>gnuplot</title>
<desc>Produced by GNUPLOT 4.4 patchlevel 4 </desc>

<defs>

	<circle id='gpDot' r='0.5' stroke-width='0.5'/>
	<path id='gpPt0' stroke-width='0.222' stroke='currentColor' d='M-1,0 h2 M0,-1 v2'/>
	<path id='gpPt1' stroke-width='0.222' stroke='currentColor' d='M-1,-1 L1,1 M1,-1 L-1,1'/>
	<path id='gpPt2' stroke-width='0.222' stroke='currentColor' d='M-1,0 L1,0 M0,-1 L0,1 M-1,-1 L1,1 M-1,1 L1,-1'/>
	<rect id='gpPt3' stroke-width='0.222' stroke='currentColor' x='-1' y='-1' width='2' height='2'/>
	<rect id='gpPt4' stroke-width='0.222' stroke='currentColor' fill='currentColor' x='-1' y='-1' width='2' height='2'/>
	<circle id='gpPt5' stroke-width='0.222' stroke='currentColor' cx='0' cy='0' r='1'/>
	<use xlink:href='#gpPt5' id='gpPt6' fill='currentColor' stroke='none'/>
	<path id='gpPt7' stroke-width='0.222' stroke='currentColor' d='M0,-1.33 L-1.33,0.67 L1.33,0.67 z'/>
	<use xlink:href='#gpPt7' id='gpPt8' fill='currentColor' stroke='none'/>
	<use xlink:href='#gpPt7' id='gpPt9' stroke='currentColor' transform='rotate(180)'/>
	<use xlink:href='#gpPt9' id='gpPt10' fill='currentColor' stroke='none'/>
	<use xlink:href='#gpPt3' id='gpPt11' stroke='currentColor' transform='rotate(45)'/>
	<use xlink:href='#gpPt11' id='gpPt12' fill='currentColor' stroke='none'/>
</defs>
<g style="fill:none; color:white; stroke:currentColor; stroke-width:1.00; stroke-linecap:butt; stroke-linejoin:miter">
</g>
<g style="fill:none; color:black; stroke:currentColor; stroke-width:1.00; stroke-linecap:butt; stroke-linejoin:miter">
	<path  d='M71.9,422.4 L80.9,422.4 M575.0,422.4 L566.0,422.4 '></path>
	<g transform="translate(63.6,426.9)" style="stroke:none; fill:black; font-family:Arial; font-size:12.00pt; text-anchor:end">
		<text> 0</text>
	</g>
	<path  d='M71.9,341.3 L80.9,341.3 M575.0,341.3 L566.0,341.3 '></path>
	<g transform="translate(63.6,345.8)" style="stroke:none; fill:black; font-family:Arial; font-size:12.00pt; text-anchor:end">
		<text> 0.2</text>
	</g>
	<path  d='M71.9,260.1 L80.9,260.1 M575.0,260.1 L566.0,260.1 '></path>
	<g transform="translate(63.6,264.6)" style="stroke:none; fill:black; font-family:Arial; font-size:12.00pt; text-anchor:end">
		<text> 0.4</text>
	</g>
	<path  d='M71.9,179.0 L80.9,179.0 M575.0,179.0 L566.0,179.0 '></path>
	<g transform="translate(63.6,183.5)" style="stroke:none; fill:black; font-family:Arial; font-size:12.00pt; text-anchor:end">
		<text> 0.6</text>
	</g>
	<path  d='M71.9,97.8 L80.9,97.8 M575.0,97.8 L566.0,97.8 '></path>
	<g transform="translate(63.6,102.3)" style="stroke:none; fill:black; font-family:Arial; font-size:12.00pt; text-anchor:end">
		<text> 0.8</text>
	</g>
	<path  d='M71.9,16.7 L80.9,16.7 M575.0,16.7 L566.0,16.7 '></path>
	<g transform="translate(63.6,21.2)" style="stroke:none; fill:black; font-family:Arial; font-size:12.00pt; text-anchor:end">
		<text> 1</text>
	</g>
	<path  d='M143.8,422.4 L143.8,413.4 M143.8,16.7 L143.8,25.7 '></path>
	<g transform="translate(143.8,444.9)" style="stroke:none; fill:black; font-family:Arial; font-size:12.00pt; text-anchor:middle">
		<text>false</text>
	</g>
	<path  d='M503.1,422.4 L503.1,413.4 M503.1,16.7 L503.1,25.7 '></path>
	<g transform="translate(503.1,444.9)" style="stroke:none; fill:black; font-family:Arial; font-size:12.00pt; text-anchor:middle">
		<text>true</text>
	</g>
	<path  d='M71.9,16.7 L71.9,422.4 L575.0,422.4 L575.0,16.7 L71.9,16.7 Z '></path>
	<g transform="translate(17.6,219.6) rotate(270)" style="stroke:none; fill:black; font-family:Arial; font-size:12.00pt; text-anchor:middle">
		<text>bernoulli(real p)</text>
	</g>
	<g transform="translate(323.4,471.9)" style="stroke:none; fill:black; font-family:Arial; font-size:12.00pt; text-anchor:middle">
		<text>x</text>
	</g>
	<g transform="translate(395.3,224.0)" style="stroke:none; fill:black; font-family:Arial; font-size:12.00pt; text-anchor:start">
		<text>bernoulli(0.69)</text>
	</g>
</g>
	<g id="Plot_1"><title>Plot_1</title>
<g style="fill:none; color:red; stroke:currentColor; stroke-width:1.00; stroke-linecap:butt; stroke-linejoin:miter">
	<path  d='M143.8,422.4 L143.8,296.6 M503.1,422.4 L503.1,142.5 '></path>
</g>
	</g>
	<g id="Plot_2"><title>Plot_2</title>
<g style="fill:none; color:red; stroke:currentColor; stroke-width:1.00; stroke-linecap:butt; stroke-linejoin:miter">
	<use xlink:href='#gpPt0' transform='translate(143.8,296.6) scale(4.50)'/>
	<use xlink:href='#gpPt0' transform='translate(503.1,142.5) scale(4.50)'/>
</g>
	</g>
<g style="fill:none; color:black; stroke:currentColor; stroke-width:1.00; stroke-linecap:butt; stroke-linejoin:miter">
	<path  d='M71.9,16.7 L71.9,422.4 L575.0,422.4 L575.0,16.7 L71.9,16.7 Z '></path>
</g>
</svg>

