<?xml version="1.0" encoding="utf-8"  standalone="no"?>
<!DOCTYPE svg PUBLIC "-//W3C//DTD SVG 1.1//EN" 
 "http://www.w3.org/Graphics/SVG/1.1/DTD/svg11.dtd">
<!--
  Copyright (c) 2010, 2023 Contributors to the Eclipse Foundation

  See the NOTICE file(s) distributed with this work for additional
  information regarding copyright ownership.

  This program and the accompanying materials are made available under the terms
  of the MIT License which is available at https://opensource.org/licenses/MIT

  SPDX-License-Identifier: MIT
-->
<svg width="600" height="480" viewBox="0 0 600 480"
 xmlns="http://www.w3.org/2000/svg"
 xmlns:xlink="http://www.w3.org/1999/xlink"
>

<title>gnuplot</title>
<desc>Produced by GNUPLOT 4.4 patchlevel 4 </desc>

<defs>

	<circle id='gpDot' r='0.5' stroke-width='0.5'/>
	<path id='gpPt0' stroke-width='0.222' stroke='currentColor' d='M-1,0 h2 M0,-1 v2'/>
	<path id='gpPt1' stroke-width='0.222' stroke='currentColor' d='M-1,-1 L1,1 M1,-1 L-1,1'/>
	<path id='gpPt2' stroke-width='0.222' stroke='currentColor' d='M-1,0 L1,0 M0,-1 L0,1 M-1,-1 L1,1 M-1,1 L1,-1'/>
	<rect id='gpPt3' stroke-width='0.222' stroke='currentColor' x='-1' y='-1' width='2' height='2'/>
	<rect id='gpPt4' stroke-width='0.222' stroke='currentColor' fill='currentColor' x='-1' y='-1' width='2' height='2'/>
	<circle id='gpPt5' stroke-width='0.222' stroke='currentColor' cx='0' cy='0' r='1'/>
	<use xlink:href='#gpPt5' id='gpPt6' fill='currentColor' stroke='none'/>
	<path id='gpPt7' stroke-width='0.222' stroke='currentColor' d='M0,-1.33 L-1.33,0.67 L1.33,0.67 z'/>
	<use xlink:href='#gpPt7' id='gpPt8' fill='currentColor' stroke='none'/>
	<use xlink:href='#gpPt7' id='gpPt9' stroke='currentColor' transform='rotate(180)'/>
	<use xlink:href='#gpPt9' id='gpPt10' fill='currentColor' stroke='none'/>
	<use xlink:href='#gpPt3' id='gpPt11' stroke='currentColor' transform='rotate(45)'/>
	<use xlink:href='#gpPt11' id='gpPt12' fill='currentColor' stroke='none'/>
</defs>
<g style="fill:none; color:white; stroke:currentColor; stroke-width:1.00; stroke-linecap:butt; stroke-linejoin:miter">
</g>
<g style="fill:none; color:black; stroke:currentColor; stroke-width:1.00; stroke-linecap:butt; stroke-linejoin:miter">
	<path  d='M71.9,422.4 L80.9,422.4 M575.0,422.4 L566.0,422.4 '></path>
	<g transform="translate(63.6,426.9)" style="stroke:none; fill:black; font-family:Arial; font-size:12.00pt; text-anchor:end">
		<text> 0</text>
	</g>
	<path  d='M71.9,341.3 L80.9,341.3 M575.0,341.3 L566.0,341.3 '></path>
	<g transform="translate(63.6,345.8)" style="stroke:none; fill:black; font-family:Arial; font-size:12.00pt; text-anchor:end">
		<text> 0.1</text>
	</g>
	<path  d='M71.9,260.1 L80.9,260.1 M575.0,260.1 L566.0,260.1 '></path>
	<g transform="translate(63.6,264.6)" style="stroke:none; fill:black; font-family:Arial; font-size:12.00pt; text-anchor:end">
		<text> 0.2</text>
	</g>
	<path  d='M71.9,179.0 L80.9,179.0 M575.0,179.0 L566.0,179.0 '></path>
	<g transform="translate(63.6,183.5)" style="stroke:none; fill:black; font-family:Arial; font-size:12.00pt; text-anchor:end">
		<text> 0.3</text>
	</g>
	<path  d='M71.9,97.8 L80.9,97.8 M575.0,97.8 L566.0,97.8 '></path>
	<g transform="translate(63.6,102.3)" style="stroke:none; fill:black; font-family:Arial; font-size:12.00pt; text-anchor:end">
		<text> 0.4</text>
	</g>
	<path  d='M71.9,16.7 L80.9,16.7 M575.0,16.7 L566.0,16.7 '></path>
	<g transform="translate(63.6,21.2)" style="stroke:none; fill:black; font-family:Arial; font-size:12.00pt; text-anchor:end">
		<text> 0.5</text>
	</g>
	<path  d='M71.9,422.4 L71.9,413.4 M71.9,16.7 L71.9,25.7 '></path>
	<g transform="translate(71.9,444.9)" style="stroke:none; fill:black; font-family:Arial; font-size:12.00pt; text-anchor:middle">
		<text> 0</text>
	</g>
	<path  d='M172.5,422.4 L172.5,413.4 M172.5,16.7 L172.5,25.7 '></path>
	<g transform="translate(172.5,444.9)" style="stroke:none; fill:black; font-family:Arial; font-size:12.00pt; text-anchor:middle">
		<text> 2</text>
	</g>
	<path  d='M273.1,422.4 L273.1,413.4 M273.1,16.7 L273.1,25.7 '></path>
	<g transform="translate(273.1,444.9)" style="stroke:none; fill:black; font-family:Arial; font-size:12.00pt; text-anchor:middle">
		<text> 4</text>
	</g>
	<path  d='M373.8,422.4 L373.8,413.4 M373.8,16.7 L373.8,25.7 '></path>
	<g transform="translate(373.8,444.9)" style="stroke:none; fill:black; font-family:Arial; font-size:12.00pt; text-anchor:middle">
		<text> 6</text>
	</g>
	<path  d='M474.4,422.4 L474.4,413.4 M474.4,16.7 L474.4,25.7 '></path>
	<g transform="translate(474.4,444.9)" style="stroke:none; fill:black; font-family:Arial; font-size:12.00pt; text-anchor:middle">
		<text> 8</text>
	</g>
	<path  d='M575.0,422.4 L575.0,413.4 M575.0,16.7 L575.0,25.7 '></path>
	<g transform="translate(575.0,444.9)" style="stroke:none; fill:black; font-family:Arial; font-size:12.00pt; text-anchor:middle">
		<text> 10</text>
	</g>
	<path  d='M71.9,16.7 L71.9,422.4 L575.0,422.4 L575.0,16.7 L71.9,16.7 Z '></path>
	<g transform="translate(17.6,219.6) rotate(270)" style="stroke:none; fill:black; font-family:Arial; font-size:12.00pt; text-anchor:middle">
		<text>normal(real m, v2)</text>
	</g>
	<g transform="translate(323.4,471.9)" style="stroke:none; fill:black; font-family:Arial; font-size:12.00pt; text-anchor:middle">
		<text>x</text>
	</g>
	<g transform="translate(283.2,224.0)" style="stroke:none; fill:black; font-family:Arial; font-size:12.00pt; text-anchor:start">
		<text>normal(3.0, 1.0)</text>
	</g>
	<g transform="translate(398.9,289.0)" style="stroke:none; fill:black; font-family:Arial; font-size:12.00pt; text-anchor:start">
		<text>normal(5.0, 2.0)</text>
	</g>
</g>
	<g id="Plot_1"><title>Plot_1</title>
<g style="fill:none; color:red; stroke:currentColor; stroke-width:1.00; stroke-linecap:butt; stroke-linejoin:miter">
	<path  d='M71.9,418.8 L72.4,418.7 L72.9,418.6 L73.4,418.5 L73.9,418.3 L74.4,418.2 L74.9,418.1 L75.4,418.0 
		L75.9,417.8 L76.4,417.7 L76.9,417.6 L77.4,417.4 L77.9,417.3 L78.4,417.1 L78.9,417.0 L79.4,416.8 
		L79.9,416.7 L80.5,416.5 L81.0,416.3 L81.5,416.2 L82.0,416.0 L82.5,415.8 L83.0,415.6 L83.5,415.4 
		L84.0,415.2 L84.5,415.0 L85.0,414.8 L85.5,414.6 L86.0,414.4 L86.5,414.2 L87.0,413.9 L87.5,413.7 
		L88.0,413.5 L88.5,413.2 L89.0,413.0 L89.5,412.7 L90.0,412.5 L90.5,412.2 L91.0,411.9 L91.5,411.7 
		L92.0,411.4 L92.5,411.1 L93.0,410.8 L93.5,410.5 L94.0,410.2 L94.5,409.9 L95.0,409.5 L95.5,409.2 
		L96.0,408.9 L96.6,408.5 L97.1,408.2 L97.6,407.8 L98.1,407.5 L98.6,407.1 L99.1,406.7 L99.6,406.3 
		L100.1,405.9 L100.6,405.5 L101.1,405.1 L101.6,404.7 L102.1,404.2 L102.6,403.8 L103.1,403.3 L103.6,402.9 
		L104.1,402.4 L104.6,401.9 L105.1,401.5 L105.6,401.0 L106.1,400.5 L106.6,399.9 L107.1,399.4 L107.6,398.9 
		L108.1,398.3 L108.6,397.8 L109.1,397.2 L109.6,396.6 L110.1,396.1 L110.6,395.5 L111.1,394.9 L111.6,394.2 
		L112.1,393.6 L112.7,393.0 L113.2,392.3 L113.7,391.7 L114.2,391.0 L114.7,390.3 L115.2,389.6 L115.7,388.9 
		L116.2,388.2 L116.7,387.5 L117.2,386.7 L117.7,386.0 L118.2,385.2 L118.7,384.4 L119.2,383.6 L119.7,382.8 
		L120.2,382.0 L120.7,381.2 L121.2,380.3 L121.7,379.5 L122.2,378.6 L122.7,377.7 L123.2,376.8 L123.7,375.9 
		L124.2,375.0 L124.7,374.0 L125.2,373.1 L125.7,372.1 L126.2,371.2 L126.7,370.2 L127.2,369.2 L127.7,368.1 
		L128.2,367.1 L128.8,366.1 L129.3,365.0 L129.8,363.9 L130.3,362.8 L130.8,361.7 L131.3,360.6 L131.8,359.5 
		L132.3,358.3 L132.8,357.2 L133.3,356.0 L133.8,354.8 L134.3,353.6 L134.8,352.4 L135.3,351.2 L135.8,349.9 
		L136.3,348.7 L136.8,347.4 L137.3,346.1 L137.8,344.8 L138.3,343.5 L138.8,342.1 L139.3,340.8 L139.8,339.4 
		L140.3,338.0 L140.8,336.7 L141.3,335.3 L141.8,333.8 L142.3,332.4 L142.8,331.0 L143.3,329.5 L143.8,328.0 
		L144.3,326.5 L144.8,325.0 L145.4,323.5 L145.9,322.0 L146.4,320.4 L146.9,318.9 L147.4,317.3 L147.9,315.7 
		L148.4,314.1 L148.9,312.5 L149.4,310.9 L149.9,309.3 L150.4,307.6 L150.9,306.0 L151.4,304.3 L151.9,302.6 
		L152.4,300.9 L152.9,299.2 L153.4,297.5 L153.9,295.8 L154.4,294.0 L154.9,292.3 L155.4,290.5 L155.9,288.7 
		L156.4,286.9 L156.9,285.2 L157.4,283.4 L157.9,281.5 L158.4,279.7 L158.9,277.9 L159.4,276.0 L159.9,274.2 
		L160.4,272.3 L160.9,270.5 L161.5,268.6 L162.0,266.7 L162.5,264.8 L163.0,262.9 L163.5,261.0 L164.0,259.1 
		L164.5,257.2 L165.0,255.3 L165.5,253.4 L166.0,251.4 L166.5,249.5 L167.0,247.6 L167.5,245.6 L168.0,243.7 
		L168.5,241.7 L169.0,239.8 L169.5,237.8 L170.0,235.9 L170.5,233.9 L171.0,232.0 L171.5,230.0 L172.0,228.0 
		L172.5,226.1 L173.0,224.1 L173.5,222.1 L174.0,220.2 L174.5,218.2 L175.0,216.3 L175.5,214.3 L176.0,212.3 
		L176.5,210.4 L177.0,208.4 L177.6,206.5 L178.1,204.6 L178.6,202.6 L179.1,200.7 L179.6,198.8 L180.1,196.8 
		L180.6,194.9 L181.1,193.0 L181.6,191.1 L182.1,189.2 L182.6,187.3 L183.1,185.5 L183.6,183.6 L184.1,181.7 
		L184.6,179.9 L185.1,178.1 L185.6,176.2 L186.1,174.4 L186.6,172.6 L187.1,170.8 L187.6,169.0 L188.1,167.3 
		L188.6,165.5 L189.1,163.8 L189.6,162.1 L190.1,160.3 L190.6,158.6 L191.1,157.0 L191.6,155.3 L192.1,153.7 
		L192.6,152.0 L193.1,150.4 L193.7,148.8 L194.2,147.2 L194.7,145.7 L195.2,144.1 L195.7,142.6 L196.2,141.1 
		L196.7,139.6 L197.2,138.2 L197.7,136.7 L198.2,135.3 L198.7,133.9 L199.2,132.5 L199.7,131.2 L200.2,129.9 
		L200.7,128.6 L201.2,127.3 L201.7,126.0 L202.2,124.8 L202.7,123.6 L203.2,122.4 L203.7,121.2 L204.2,120.1 
		L204.7,119.0 L205.2,117.9 L205.7,116.9 L206.2,115.9 L206.7,114.9 L207.2,113.9 L207.7,112.9 L208.2,112.0 
		L208.7,111.1 L209.2,110.3 L209.7,109.5 L210.3,108.7 L210.8,107.9 L211.3,107.1 L211.8,106.4 L212.3,105.8 
		L212.8,105.1 L213.3,104.5 L213.8,103.9 L214.3,103.3 L214.8,102.8 L215.3,102.3 L215.8,101.9 L216.3,101.4 
		L216.8,101.0 L217.3,100.7 L217.8,100.3 L218.3,100.0 L218.8,99.7 L219.3,99.5 L219.8,99.3 L220.3,99.1 
		L220.8,99.0 L221.3,98.8 L221.8,98.8 L222.3,98.7 L222.8,98.7 L223.3,98.7 L223.8,98.8 L224.3,98.8 
		L224.8,99.0 L225.3,99.1 L225.8,99.3 L226.4,99.5 L226.9,99.7 L227.4,100.0 L227.9,100.3 L228.4,100.7 
		L228.9,101.0 L229.4,101.4 L229.9,101.9 L230.4,102.3 L230.9,102.8 L231.4,103.3 L231.9,103.9 L232.4,104.5 
		L232.9,105.1 L233.4,105.8 L233.9,106.4 L234.4,107.1 L234.9,107.9 L235.4,108.7 L235.9,109.5 L236.4,110.3 
		L236.9,111.1 L237.4,112.0 L237.9,112.9 L238.4,113.9 L238.9,114.9 L239.4,115.9 L239.9,116.9 L240.4,117.9 
		L240.9,119.0 L241.4,120.1 L241.9,121.2 L242.5,122.4 L243.0,123.6 L243.5,124.8 L244.0,126.0 L244.5,127.3 
		L245.0,128.6 L245.5,129.9 L246.0,131.2 L246.5,132.5 L247.0,133.9 L247.5,135.3 L248.0,136.7 L248.5,138.2 
		L249.0,139.6 L249.5,141.1 L250.0,142.6 L250.5,144.1 L251.0,145.7 L251.5,147.2 L252.0,148.8 L252.5,150.4 
		L253.0,152.0 L253.5,153.7 L254.0,155.3 L254.5,157.0 L255.0,158.6 L255.5,160.3 L256.0,162.1 L256.5,163.8 
		L257.0,165.5 L257.5,167.3 L258.0,169.0 L258.6,170.8 L259.1,172.6 L259.6,174.4 L260.1,176.2 L260.6,178.1 
		L261.1,179.9 L261.6,181.7 L262.1,183.6 L262.6,185.5 L263.1,187.3 L263.6,189.2 L264.1,191.1 L264.6,193.0 
		L265.1,194.9 L265.6,196.8 L266.1,198.8 L266.6,200.7 L267.1,202.6 L267.6,204.6 L268.1,206.5 L268.6,208.4 
		L269.1,210.4 L269.6,212.3 L270.1,214.3 L270.6,216.3 L271.1,218.2 L271.6,220.2 L272.1,222.1 L272.6,224.1 
		L273.1,226.1 L273.6,228.0 L274.1,230.0 L274.6,232.0 L275.2,233.9 L275.7,235.9 L276.2,237.8 L276.7,239.8 
		L277.2,241.7 L277.7,243.7 L278.2,245.6 L278.7,247.6 L279.2,249.5 L279.7,251.4 L280.2,253.4 L280.7,255.3 
		L281.2,257.2 L281.7,259.1 L282.2,261.0 L282.7,262.9 L283.2,264.8 L283.7,266.7 L284.2,268.6 L284.7,270.5 
		L285.2,272.3 L285.7,274.2 L286.2,276.0 L286.7,277.9 L287.2,279.7 L287.7,281.5 L288.2,283.4 L288.7,285.2 
		L289.2,286.9 L289.7,288.7 L290.2,290.5 L290.7,292.3 L291.3,294.0 L291.8,295.8 L292.3,297.5 L292.8,299.2 
		L293.3,300.9 L293.8,302.6 L294.3,304.3 L294.8,306.0 L295.3,307.6 L295.8,309.3 L296.3,310.9 L296.8,312.5 
		L297.3,314.1 L297.8,315.7 L298.3,317.3 L298.8,318.9 L299.3,320.4 L299.8,322.0 L300.3,323.5 L300.8,325.0 
		L301.3,326.5 L301.8,328.0 L302.3,329.5 L302.8,331.0 L303.3,332.4 L303.8,333.8 L304.3,335.3 L304.8,336.7 
		L305.3,338.0 L305.8,339.4 L306.3,340.8 L306.8,342.1 L307.4,343.5 L307.9,344.8 L308.4,346.1 L308.9,347.4 
		L309.4,348.7 L309.9,349.9 L310.4,351.2 L310.9,352.4 L311.4,353.6 L311.9,354.8 L312.4,356.0 L312.9,357.2 
		L313.4,358.3 L313.9,359.5 L314.4,360.6 L314.9,361.7 L315.4,362.8 L315.9,363.9 L316.4,365.0 L316.9,366.1 
		L317.4,367.1 L317.9,368.1 L318.4,369.2 L318.9,370.2 L319.4,371.2 L319.9,372.1 L320.4,373.1 L320.9,374.0 
		L321.4,375.0 L321.9,375.9 L322.4,376.8 L322.9,377.7 L323.5,378.6 L324.0,379.5 L324.5,380.3 L325.0,381.2 
		L325.5,382.0 L326.0,382.8 L326.5,383.6 L327.0,384.4 L327.5,385.2 L328.0,386.0 L328.5,386.7 L329.0,387.5 
		L329.5,388.2 L330.0,388.9 L330.5,389.6 L331.0,390.3 L331.5,391.0 L332.0,391.7 L332.5,392.3 L333.0,393.0 
		L333.5,393.6 L334.0,394.2 L334.5,394.9 L335.0,395.5 L335.5,396.1 L336.0,396.6 L336.5,397.2 L337.0,397.8 
		L337.5,398.3 L338.0,398.9 L338.5,399.4 L339.0,399.9 L339.5,400.5 L340.1,401.0 L340.6,401.5 L341.1,401.9 
		L341.6,402.4 L342.1,402.9 L342.6,403.3 L343.1,403.8 L343.6,404.2 L344.1,404.7 L344.6,405.1 L345.1,405.5 
		L345.6,405.9 L346.1,406.3 L346.6,406.7 L347.1,407.1 L347.6,407.5 L348.1,407.8 L348.6,408.2 L349.1,408.5 
		L349.6,408.9 L350.1,409.2 L350.6,409.5 L351.1,409.9 L351.6,410.2 L352.1,410.5 L352.6,410.8 L353.1,411.1 
		L353.6,411.4 L354.1,411.7 L354.6,411.9 L355.1,412.2 L355.6,412.5 L356.2,412.7 L356.7,413.0 L357.2,413.2 
		L357.7,413.5 L358.2,413.7 L358.7,413.9 L359.2,414.2 L359.7,414.4 L360.2,414.6 L360.7,414.8 L361.2,415.0 
		L361.7,415.2 L362.2,415.4 L362.7,415.6 L363.2,415.8 L363.7,416.0 L364.2,416.2 L364.7,416.3 L365.2,416.5 
		L365.7,416.7 L366.2,416.8 L366.7,417.0 L367.2,417.1 L367.7,417.3 L368.2,417.4 L368.7,417.6 L369.2,417.7 
		L369.7,417.8 L370.2,418.0 L370.7,418.1 L371.2,418.2 L371.7,418.3 L372.3,418.5 L372.8,418.6 L373.3,418.7 
		L373.8,418.8 L374.3,418.9 L374.8,419.0 L375.3,419.1 L375.8,419.2 L376.3,419.3 L376.8,419.4 L377.3,419.5 
		L377.8,419.6 L378.3,419.7 L378.8,419.7 L379.3,419.8 L379.8,419.9 L380.3,420.0 L380.8,420.1 L381.3,420.1 
		L381.8,420.2 L382.3,420.3 L382.8,420.3 L383.3,420.4 L383.8,420.5 L384.3,420.5 L384.8,420.6 L385.3,420.6 
		L385.8,420.7 L386.3,420.8 L386.8,420.8 L387.3,420.9 L387.8,420.9 L388.3,421.0 L388.9,421.0 L389.4,421.0 
		L389.9,421.1 L390.4,421.1 L390.9,421.2 L391.4,421.2 L391.9,421.3 L392.4,421.3 L392.9,421.3 L393.4,421.4 
		L393.9,421.4 L394.4,421.4 L394.9,421.5 L395.4,421.5 L395.9,421.5 L396.4,421.6 L396.9,421.6 L397.4,421.6 
		L397.9,421.6 L398.4,421.7 L398.9,421.7 L399.4,421.7 L399.9,421.7 L400.4,421.8 L400.9,421.8 L401.4,421.8 
		L401.9,421.8 L402.4,421.8 L402.9,421.9 L403.4,421.9 L403.9,421.9 L404.4,421.9 L405.0,421.9 L405.5,422.0 
		L406.0,422.0 L406.5,422.0 L407.0,422.0 L407.5,422.0 L408.0,422.0 L408.5,422.0 L409.0,422.1 L409.5,422.1 
		L410.0,422.1 L410.5,422.1 L411.0,422.1 L411.5,422.1 L412.0,422.1 L412.5,422.1 L413.0,422.1 L413.5,422.2 
		L414.0,422.2 L414.5,422.2 L415.0,422.2 L415.5,422.2 L416.0,422.2 L416.5,422.2 L417.0,422.2 L417.5,422.2 
		L418.0,422.2 L418.5,422.2 L419.0,422.2 L419.5,422.2 L420.0,422.3 L420.5,422.3 L421.1,422.3 L421.6,422.3 
		L422.1,422.3 L422.6,422.3 L423.1,422.3 L423.6,422.3 L424.1,422.3 L424.6,422.3 L425.1,422.3 L425.6,422.3 
		L426.1,422.3 L426.6,422.3 L427.1,422.3 L427.6,422.3 L428.1,422.3 L428.6,422.3 L429.1,422.3 L429.6,422.3 
		L430.1,422.3 L430.6,422.3 L431.1,422.3 L431.6,422.3 L432.1,422.3 L432.6,422.3 L433.1,422.3 L433.6,422.4 
		L434.1,422.4 L434.6,422.4 L435.1,422.4 L435.6,422.4 L436.1,422.4 L436.6,422.4 L437.2,422.4 L437.7,422.4 
		L438.2,422.4 L438.7,422.4 L439.2,422.4 L439.7,422.4 L440.2,422.4 L440.7,422.4 L441.2,422.4 L441.7,422.4 
		L442.2,422.4 L442.7,422.4 L443.2,422.4 L443.7,422.4 L444.2,422.4 L444.7,422.4 L445.2,422.4 L445.7,422.4 
		L446.2,422.4 L446.7,422.4 L447.2,422.4 L447.7,422.4 L448.2,422.4 L448.7,422.4 L449.2,422.4 L449.7,422.4 
		L450.2,422.4 L450.7,422.4 L451.2,422.4 L451.7,422.4 L452.2,422.4 L452.7,422.4 L453.2,422.4 L453.8,422.4 
		L454.3,422.4 L454.8,422.4 L455.3,422.4 L455.8,422.4 L456.3,422.4 L456.8,422.4 L457.3,422.4 L457.8,422.4 
		L458.3,422.4 L458.8,422.4 L459.3,422.4 L459.8,422.4 L460.3,422.4 L460.8,422.4 L461.3,422.4 L461.8,422.4 
		L462.3,422.4 L462.8,422.4 L463.3,422.4 L463.8,422.4 L464.3,422.4 L464.8,422.4 L465.3,422.4 L465.8,422.4 
		L466.3,422.4 L466.8,422.4 L467.3,422.4 L467.8,422.4 L468.3,422.4 L468.8,422.4 L469.3,422.4 L469.9,422.4 
		L470.4,422.4 L470.9,422.4 L471.4,422.4 L471.9,422.4 L472.4,422.4 L472.9,422.4 L473.4,422.4 L473.9,422.4 
		L474.4,422.4 L474.9,422.4 L475.4,422.4 L475.9,422.4 L476.4,422.4 L476.9,422.4 L477.4,422.4 L477.9,422.4 
		L478.4,422.4 L478.9,422.4 L479.4,422.4 L479.9,422.4 L480.4,422.4 L480.9,422.4 L481.4,422.4 L481.9,422.4 
		L482.4,422.4 L482.9,422.4 L483.4,422.4 L483.9,422.4 L484.4,422.4 L484.9,422.4 L485.4,422.4 L486.0,422.4 
		L486.5,422.4 L487.0,422.4 L487.5,422.4 L488.0,422.4 L488.5,422.4 L489.0,422.4 L489.5,422.4 L490.0,422.4 
		L490.5,422.4 L491.0,422.4 L491.5,422.4 L492.0,422.4 L492.5,422.4 L493.0,422.4 L493.5,422.4 L494.0,422.4 
		L494.5,422.4 L495.0,422.4 L495.5,422.4 L496.0,422.4 L496.5,422.4 L497.0,422.4 L497.5,422.4 L498.0,422.4 
		L498.5,422.4 L499.0,422.4 L499.5,422.4 L500.0,422.4 L500.5,422.4 L501.0,422.4 L501.5,422.4 L502.1,422.4 
		L502.6,422.4 L503.1,422.4 L503.6,422.4 L504.1,422.4 L504.6,422.4 L505.1,422.4 L505.6,422.4 L506.1,422.4 
		L506.6,422.4 L507.1,422.4 L507.6,422.4 L508.1,422.4 L508.6,422.4 L509.1,422.4 L509.6,422.4 L510.1,422.4 
		L510.6,422.4 L511.1,422.4 L511.6,422.4 L512.1,422.4 L512.6,422.4 L513.1,422.4 L513.6,422.4 L514.1,422.4 
		L514.6,422.4 L515.1,422.4 L515.6,422.4 L516.1,422.4 L516.6,422.4 L517.1,422.4 L517.6,422.4 L518.1,422.4 
		L518.7,422.4 L519.2,422.4 L519.7,422.4 L520.2,422.4 L520.7,422.4 L521.2,422.4 L521.7,422.4 L522.2,422.4 
		L522.7,422.4 L523.2,422.4 L523.7,422.4 L524.2,422.4 L524.7,422.4 L525.2,422.4 L525.7,422.4 L526.2,422.4 
		L526.7,422.4 L527.2,422.4 L527.7,422.4 L528.2,422.4 L528.7,422.4 L529.2,422.4 L529.7,422.4 L530.2,422.4 
		L530.7,422.4 L531.2,422.4 L531.7,422.4 L532.2,422.4 L532.7,422.4 L533.2,422.4 L533.7,422.4 L534.2,422.4 
		L534.8,422.4 L535.3,422.4 L535.8,422.4 L536.3,422.4 L536.8,422.4 L537.3,422.4 L537.8,422.4 L538.3,422.4 
		L538.8,422.4 L539.3,422.4 L539.8,422.4 L540.3,422.4 L540.8,422.4 L541.3,422.4 L541.8,422.4 L542.3,422.4 
		L542.8,422.4 L543.3,422.4 L543.8,422.4 L544.3,422.4 L544.8,422.4 L545.3,422.4 L545.8,422.4 L546.3,422.4 
		L546.8,422.4 L547.3,422.4 L547.8,422.4 L548.3,422.4 L548.8,422.4 L549.3,422.4 L549.8,422.4 L550.3,422.4 
		L550.9,422.4 L551.4,422.4 L551.9,422.4 L552.4,422.4 L552.9,422.4 L553.4,422.4 L553.9,422.4 L554.4,422.4 
		L554.9,422.4 L555.4,422.4 L555.9,422.4 L556.4,422.4 L556.9,422.4 L557.4,422.4 L557.9,422.4 L558.4,422.4 
		L558.9,422.4 L559.4,422.4 L559.9,422.4 L560.4,422.4 L560.9,422.4 L561.4,422.4 L561.9,422.4 L562.4,422.4 
		L562.9,422.4 L563.4,422.4 L563.9,422.4 L564.4,422.4 L564.9,422.4 L565.4,422.4 L565.9,422.4 L566.4,422.4 
		L567.0,422.4 L567.5,422.4 L568.0,422.4 L568.5,422.4 L569.0,422.4 L569.5,422.4 L570.0,422.4 L570.5,422.4 
		L571.0,422.4 L571.5,422.4 L572.0,422.4 L572.5,422.4 L573.0,422.4 L573.5,422.4 L574.0,422.4 L574.5,422.4 
		L575.0,422.4 '></path>
</g>
	</g>
	<g id="Plot_2"><title>Plot_2</title>
<g style="fill:none; color:green; stroke:currentColor; stroke-width:1.00; stroke-linecap:butt; stroke-linejoin:miter">
	<path  d='M71.9,415.3 L72.4,415.2 L72.9,415.1 L73.4,415.0 L73.9,414.9 L74.4,414.8 L74.9,414.7 L75.4,414.6 
		L75.9,414.5 L76.4,414.4 L76.9,414.4 L77.4,414.3 L77.9,414.2 L78.4,414.1 L78.9,413.9 L79.4,413.8 
		L79.9,413.7 L80.5,413.6 L81.0,413.5 L81.5,413.4 L82.0,413.3 L82.5,413.2 L83.0,413.1 L83.5,413.0 
		L84.0,412.9 L84.5,412.8 L85.0,412.6 L85.5,412.5 L86.0,412.4 L86.5,412.3 L87.0,412.2 L87.5,412.0 
		L88.0,411.9 L88.5,411.8 L89.0,411.7 L89.5,411.6 L90.0,411.4 L90.5,411.3 L91.0,411.2 L91.5,411.0 
		L92.0,410.9 L92.5,410.8 L93.0,410.6 L93.5,410.5 L94.0,410.4 L94.5,410.2 L95.0,410.1 L95.5,410.0 
		L96.0,409.8 L96.6,409.7 L97.1,409.5 L97.6,409.4 L98.1,409.2 L98.6,409.1 L99.1,408.9 L99.6,408.8 
		L100.1,408.6 L100.6,408.5 L101.1,408.3 L101.6,408.2 L102.1,408.0 L102.6,407.8 L103.1,407.7 L103.6,407.5 
		L104.1,407.4 L104.6,407.2 L105.1,407.0 L105.6,406.9 L106.1,406.7 L106.6,406.5 L107.1,406.4 L107.6,406.2 
		L108.1,406.0 L108.6,405.8 L109.1,405.7 L109.6,405.5 L110.1,405.3 L110.6,405.1 L111.1,404.9 L111.6,404.7 
		L112.1,404.6 L112.7,404.4 L113.2,404.2 L113.7,404.0 L114.2,403.8 L114.7,403.6 L115.2,403.4 L115.7,403.2 
		L116.2,403.0 L116.7,402.8 L117.2,402.6 L117.7,402.4 L118.2,402.2 L118.7,402.0 L119.2,401.8 L119.7,401.6 
		L120.2,401.4 L120.7,401.1 L121.2,400.9 L121.7,400.7 L122.2,400.5 L122.7,400.3 L123.2,400.1 L123.7,399.8 
		L124.2,399.6 L124.7,399.4 L125.2,399.2 L125.7,398.9 L126.2,398.7 L126.7,398.5 L127.2,398.2 L127.7,398.0 
		L128.2,397.7 L128.8,397.5 L129.3,397.3 L129.8,397.0 L130.3,396.8 L130.8,396.5 L131.3,396.3 L131.8,396.0 
		L132.3,395.8 L132.8,395.5 L133.3,395.3 L133.8,395.0 L134.3,394.8 L134.8,394.5 L135.3,394.2 L135.8,394.0 
		L136.3,393.7 L136.8,393.4 L137.3,393.2 L137.8,392.9 L138.3,392.6 L138.8,392.3 L139.3,392.1 L139.8,391.8 
		L140.3,391.5 L140.8,391.2 L141.3,390.9 L141.8,390.7 L142.3,390.4 L142.8,390.1 L143.3,389.8 L143.8,389.5 
		L144.3,389.2 L144.8,388.9 L145.4,388.6 L145.9,388.3 L146.4,388.0 L146.9,387.7 L147.4,387.4 L147.9,387.1 
		L148.4,386.8 L148.9,386.5 L149.4,386.2 L149.9,385.8 L150.4,385.5 L150.9,385.2 L151.4,384.9 L151.9,384.6 
		L152.4,384.2 L152.9,383.9 L153.4,383.6 L153.9,383.3 L154.4,382.9 L154.9,382.6 L155.4,382.3 L155.9,381.9 
		L156.4,381.6 L156.9,381.3 L157.4,380.9 L157.9,380.6 L158.4,380.2 L158.9,379.9 L159.4,379.5 L159.9,379.2 
		L160.4,378.8 L160.9,378.5 L161.5,378.1 L162.0,377.8 L162.5,377.4 L163.0,377.0 L163.5,376.7 L164.0,376.3 
		L164.5,375.9 L165.0,375.6 L165.5,375.2 L166.0,374.8 L166.5,374.5 L167.0,374.1 L167.5,373.7 L168.0,373.3 
		L168.5,373.0 L169.0,372.6 L169.5,372.2 L170.0,371.8 L170.5,371.4 L171.0,371.0 L171.5,370.6 L172.0,370.2 
		L172.5,369.9 L173.0,369.5 L173.5,369.1 L174.0,368.7 L174.5,368.3 L175.0,367.9 L175.5,367.5 L176.0,367.1 
		L176.5,366.7 L177.0,366.2 L177.6,365.8 L178.1,365.4 L178.6,365.0 L179.1,364.6 L179.6,364.2 L180.1,363.8 
		L180.6,363.3 L181.1,362.9 L181.6,362.5 L182.1,362.1 L182.6,361.7 L183.1,361.2 L183.6,360.8 L184.1,360.4 
		L184.6,359.9 L185.1,359.5 L185.6,359.1 L186.1,358.6 L186.6,358.2 L187.1,357.8 L187.6,357.3 L188.1,356.9 
		L188.6,356.5 L189.1,356.0 L189.6,355.6 L190.1,355.1 L190.6,354.7 L191.1,354.2 L191.6,353.8 L192.1,353.3 
		L192.6,352.9 L193.1,352.4 L193.7,352.0 L194.2,351.5 L194.7,351.1 L195.2,350.6 L195.7,350.1 L196.2,349.7 
		L196.7,349.2 L197.2,348.8 L197.7,348.3 L198.2,347.8 L198.7,347.4 L199.2,346.9 L199.7,346.4 L200.2,346.0 
		L200.7,345.5 L201.2,345.0 L201.7,344.6 L202.2,344.1 L202.7,343.6 L203.2,343.1 L203.7,342.7 L204.2,342.2 
		L204.7,341.7 L205.2,341.2 L205.7,340.8 L206.2,340.3 L206.7,339.8 L207.2,339.3 L207.7,338.9 L208.2,338.4 
		L208.7,337.9 L209.2,337.4 L209.7,336.9 L210.3,336.4 L210.8,336.0 L211.3,335.5 L211.8,335.0 L212.3,334.5 
		L212.8,334.0 L213.3,333.5 L213.8,333.0 L214.3,332.6 L214.8,332.1 L215.3,331.6 L215.8,331.1 L216.3,330.6 
		L216.8,330.1 L217.3,329.6 L217.8,329.1 L218.3,328.6 L218.8,328.2 L219.3,327.7 L219.8,327.2 L220.3,326.7 
		L220.8,326.2 L221.3,325.7 L221.8,325.2 L222.3,324.7 L222.8,324.2 L223.3,323.7 L223.8,323.3 L224.3,322.8 
		L224.8,322.3 L225.3,321.8 L225.8,321.3 L226.4,320.8 L226.9,320.3 L227.4,319.8 L227.9,319.3 L228.4,318.8 
		L228.9,318.3 L229.4,317.9 L229.9,317.4 L230.4,316.9 L230.9,316.4 L231.4,315.9 L231.9,315.4 L232.4,314.9 
		L232.9,314.4 L233.4,314.0 L233.9,313.5 L234.4,313.0 L234.9,312.5 L235.4,312.0 L235.9,311.5 L236.4,311.1 
		L236.9,310.6 L237.4,310.1 L237.9,309.6 L238.4,309.1 L238.9,308.7 L239.4,308.2 L239.9,307.7 L240.4,307.2 
		L240.9,306.8 L241.4,306.3 L241.9,305.8 L242.5,305.3 L243.0,304.9 L243.5,304.4 L244.0,303.9 L244.5,303.5 
		L245.0,303.0 L245.5,302.5 L246.0,302.1 L246.5,301.6 L247.0,301.1 L247.5,300.7 L248.0,300.2 L248.5,299.8 
		L249.0,299.3 L249.5,298.9 L250.0,298.4 L250.5,298.0 L251.0,297.5 L251.5,297.1 L252.0,296.6 L252.5,296.2 
		L253.0,295.7 L253.5,295.3 L254.0,294.8 L254.5,294.4 L255.0,294.0 L255.5,293.5 L256.0,293.1 L256.5,292.7 
		L257.0,292.2 L257.5,291.8 L258.0,291.4 L258.6,290.9 L259.1,290.5 L259.6,290.1 L260.1,289.7 L260.6,289.3 
		L261.1,288.9 L261.6,288.4 L262.1,288.0 L262.6,287.6 L263.1,287.2 L263.6,286.8 L264.1,286.4 L264.6,286.0 
		L265.1,285.6 L265.6,285.2 L266.1,284.8 L266.6,284.4 L267.1,284.0 L267.6,283.7 L268.1,283.3 L268.6,282.9 
		L269.1,282.5 L269.6,282.1 L270.1,281.8 L270.6,281.4 L271.1,281.0 L271.6,280.7 L272.1,280.3 L272.6,279.9 
		L273.1,279.6 L273.6,279.2 L274.1,278.9 L274.6,278.5 L275.2,278.2 L275.7,277.8 L276.2,277.5 L276.7,277.1 
		L277.2,276.8 L277.7,276.5 L278.2,276.1 L278.7,275.8 L279.2,275.5 L279.7,275.2 L280.2,274.8 L280.7,274.5 
		L281.2,274.2 L281.7,273.9 L282.2,273.6 L282.7,273.3 L283.2,273.0 L283.7,272.7 L284.2,272.4 L284.7,272.1 
		L285.2,271.8 L285.7,271.5 L286.2,271.3 L286.7,271.0 L287.2,270.7 L287.7,270.4 L288.2,270.2 L288.7,269.9 
		L289.2,269.6 L289.7,269.4 L290.2,269.1 L290.7,268.9 L291.3,268.6 L291.8,268.4 L292.3,268.1 L292.8,267.9 
		L293.3,267.7 L293.8,267.4 L294.3,267.2 L294.8,267.0 L295.3,266.8 L295.8,266.6 L296.3,266.3 L296.8,266.1 
		L297.3,265.9 L297.8,265.7 L298.3,265.5 L298.8,265.3 L299.3,265.1 L299.8,265.0 L300.3,264.8 L300.8,264.6 
		L301.3,264.4 L301.8,264.2 L302.3,264.1 L302.8,263.9 L303.3,263.8 L303.8,263.6 L304.3,263.4 L304.8,263.3 
		L305.3,263.1 L305.8,263.0 L306.3,262.9 L306.8,262.7 L307.4,262.6 L307.9,262.5 L308.4,262.4 L308.9,262.2 
		L309.4,262.1 L309.9,262.0 L310.4,261.9 L310.9,261.8 L311.4,261.7 L311.9,261.6 L312.4,261.5 L312.9,261.4 
		L313.4,261.4 L313.9,261.3 L314.4,261.2 L314.9,261.1 L315.4,261.1 L315.9,261.0 L316.4,260.9 L316.9,260.9 
		L317.4,260.8 L317.9,260.8 L318.4,260.8 L318.9,260.7 L319.4,260.7 L319.9,260.6 L320.4,260.6 L320.9,260.6 
		L321.4,260.6 L321.9,260.6 L322.4,260.6 L322.9,260.6 L323.5,260.5 L324.0,260.6 L324.5,260.6 L325.0,260.6 
		L325.5,260.6 L326.0,260.6 L326.5,260.6 L327.0,260.6 L327.5,260.7 L328.0,260.7 L328.5,260.8 L329.0,260.8 
		L329.5,260.8 L330.0,260.9 L330.5,260.9 L331.0,261.0 L331.5,261.1 L332.0,261.1 L332.5,261.2 L333.0,261.3 
		L333.5,261.4 L334.0,261.4 L334.5,261.5 L335.0,261.6 L335.5,261.7 L336.0,261.8 L336.5,261.9 L337.0,262.0 
		L337.5,262.1 L338.0,262.2 L338.5,262.4 L339.0,262.5 L339.5,262.6 L340.1,262.7 L340.6,262.9 L341.1,263.0 
		L341.6,263.1 L342.1,263.3 L342.6,263.4 L343.1,263.6 L343.6,263.8 L344.1,263.9 L344.6,264.1 L345.1,264.2 
		L345.6,264.4 L346.1,264.6 L346.6,264.8 L347.1,265.0 L347.6,265.1 L348.1,265.3 L348.6,265.5 L349.1,265.7 
		L349.6,265.9 L350.1,266.1 L350.6,266.3 L351.1,266.6 L351.6,266.8 L352.1,267.0 L352.6,267.2 L353.1,267.4 
		L353.6,267.7 L354.1,267.9 L354.6,268.1 L355.1,268.4 L355.6,268.6 L356.2,268.9 L356.7,269.1 L357.2,269.4 
		L357.7,269.6 L358.2,269.9 L358.7,270.2 L359.2,270.4 L359.7,270.7 L360.2,271.0 L360.7,271.3 L361.2,271.5 
		L361.7,271.8 L362.2,272.1 L362.7,272.4 L363.2,272.7 L363.7,273.0 L364.2,273.3 L364.7,273.6 L365.2,273.9 
		L365.7,274.2 L366.2,274.5 L366.7,274.8 L367.2,275.2 L367.7,275.5 L368.2,275.8 L368.7,276.1 L369.2,276.5 
		L369.7,276.8 L370.2,277.1 L370.7,277.5 L371.2,277.8 L371.7,278.2 L372.3,278.5 L372.8,278.9 L373.3,279.2 
		L373.8,279.6 L374.3,279.9 L374.8,280.3 L375.3,280.7 L375.8,281.0 L376.3,281.4 L376.8,281.8 L377.3,282.1 
		L377.8,282.5 L378.3,282.9 L378.8,283.3 L379.3,283.7 L379.8,284.0 L380.3,284.4 L380.8,284.8 L381.3,285.2 
		L381.8,285.6 L382.3,286.0 L382.8,286.4 L383.3,286.8 L383.8,287.2 L384.3,287.6 L384.8,288.0 L385.3,288.4 
		L385.8,288.9 L386.3,289.3 L386.8,289.7 L387.3,290.1 L387.8,290.5 L388.3,290.9 L388.9,291.4 L389.4,291.8 
		L389.9,292.2 L390.4,292.7 L390.9,293.1 L391.4,293.5 L391.9,294.0 L392.4,294.4 L392.9,294.8 L393.4,295.3 
		L393.9,295.7 L394.4,296.2 L394.9,296.6 L395.4,297.1 L395.9,297.5 L396.4,298.0 L396.9,298.4 L397.4,298.9 
		L397.9,299.3 L398.4,299.8 L398.9,300.2 L399.4,300.7 L399.9,301.1 L400.4,301.6 L400.9,302.1 L401.4,302.5 
		L401.9,303.0 L402.4,303.5 L402.9,303.9 L403.4,304.4 L403.9,304.9 L404.4,305.3 L405.0,305.8 L405.5,306.3 
		L406.0,306.8 L406.5,307.2 L407.0,307.7 L407.5,308.2 L408.0,308.7 L408.5,309.1 L409.0,309.6 L409.5,310.1 
		L410.0,310.6 L410.5,311.1 L411.0,311.5 L411.5,312.0 L412.0,312.5 L412.5,313.0 L413.0,313.5 L413.5,314.0 
		L414.0,314.4 L414.5,314.9 L415.0,315.4 L415.5,315.9 L416.0,316.4 L416.5,316.9 L417.0,317.4 L417.5,317.9 
		L418.0,318.3 L418.5,318.8 L419.0,319.3 L419.5,319.8 L420.0,320.3 L420.5,320.8 L421.1,321.3 L421.6,321.8 
		L422.1,322.3 L422.6,322.8 L423.1,323.3 L423.6,323.7 L424.1,324.2 L424.6,324.7 L425.1,325.2 L425.6,325.7 
		L426.1,326.2 L426.6,326.7 L427.1,327.2 L427.6,327.7 L428.1,328.2 L428.6,328.6 L429.1,329.1 L429.6,329.6 
		L430.1,330.1 L430.6,330.6 L431.1,331.1 L431.6,331.6 L432.1,332.1 L432.6,332.6 L433.1,333.0 L433.6,333.5 
		L434.1,334.0 L434.6,334.5 L435.1,335.0 L435.6,335.5 L436.1,336.0 L436.6,336.4 L437.2,336.9 L437.7,337.4 
		L438.2,337.9 L438.7,338.4 L439.2,338.9 L439.7,339.3 L440.2,339.8 L440.7,340.3 L441.2,340.8 L441.7,341.2 
		L442.2,341.7 L442.7,342.2 L443.2,342.7 L443.7,343.1 L444.2,343.6 L444.7,344.1 L445.2,344.6 L445.7,345.0 
		L446.2,345.5 L446.7,346.0 L447.2,346.4 L447.7,346.9 L448.2,347.4 L448.7,347.8 L449.2,348.3 L449.7,348.8 
		L450.2,349.2 L450.7,349.7 L451.2,350.1 L451.7,350.6 L452.2,351.1 L452.7,351.5 L453.2,352.0 L453.8,352.4 
		L454.3,352.9 L454.8,353.3 L455.3,353.8 L455.8,354.2 L456.3,354.7 L456.8,355.1 L457.3,355.6 L457.8,356.0 
		L458.3,356.5 L458.8,356.9 L459.3,357.3 L459.8,357.8 L460.3,358.2 L460.8,358.6 L461.3,359.1 L461.8,359.5 
		L462.3,359.9 L462.8,360.4 L463.3,360.8 L463.8,361.2 L464.3,361.7 L464.8,362.1 L465.3,362.5 L465.8,362.9 
		L466.3,363.3 L466.8,363.8 L467.3,364.2 L467.8,364.6 L468.3,365.0 L468.8,365.4 L469.3,365.8 L469.9,366.2 
		L470.4,366.7 L470.9,367.1 L471.4,367.5 L471.9,367.9 L472.4,368.3 L472.9,368.7 L473.4,369.1 L473.9,369.5 
		L474.4,369.9 L474.9,370.2 L475.4,370.6 L475.9,371.0 L476.4,371.4 L476.9,371.8 L477.4,372.2 L477.9,372.6 
		L478.4,373.0 L478.9,373.3 L479.4,373.7 L479.9,374.1 L480.4,374.5 L480.9,374.8 L481.4,375.2 L481.9,375.6 
		L482.4,375.9 L482.9,376.3 L483.4,376.7 L483.9,377.0 L484.4,377.4 L484.9,377.8 L485.4,378.1 L486.0,378.5 
		L486.5,378.8 L487.0,379.2 L487.5,379.5 L488.0,379.9 L488.5,380.2 L489.0,380.6 L489.5,380.9 L490.0,381.3 
		L490.5,381.6 L491.0,381.9 L491.5,382.3 L492.0,382.6 L492.5,382.9 L493.0,383.3 L493.5,383.6 L494.0,383.9 
		L494.5,384.2 L495.0,384.6 L495.5,384.9 L496.0,385.2 L496.5,385.5 L497.0,385.8 L497.5,386.2 L498.0,386.5 
		L498.5,386.8 L499.0,387.1 L499.5,387.4 L500.0,387.7 L500.5,388.0 L501.0,388.3 L501.5,388.6 L502.1,388.9 
		L502.6,389.2 L503.1,389.5 L503.6,389.8 L504.1,390.1 L504.6,390.4 L505.1,390.7 L505.6,390.9 L506.1,391.2 
		L506.6,391.5 L507.1,391.8 L507.6,392.1 L508.1,392.3 L508.6,392.6 L509.1,392.9 L509.6,393.2 L510.1,393.4 
		L510.6,393.7 L511.1,394.0 L511.6,394.2 L512.1,394.5 L512.6,394.8 L513.1,395.0 L513.6,395.3 L514.1,395.5 
		L514.6,395.8 L515.1,396.0 L515.6,396.3 L516.1,396.5 L516.6,396.8 L517.1,397.0 L517.6,397.3 L518.1,397.5 
		L518.7,397.7 L519.2,398.0 L519.7,398.2 L520.2,398.5 L520.7,398.7 L521.2,398.9 L521.7,399.2 L522.2,399.4 
		L522.7,399.6 L523.2,399.8 L523.7,400.1 L524.2,400.3 L524.7,400.5 L525.2,400.7 L525.7,400.9 L526.2,401.1 
		L526.7,401.4 L527.2,401.6 L527.7,401.8 L528.2,402.0 L528.7,402.2 L529.2,402.4 L529.7,402.6 L530.2,402.8 
		L530.7,403.0 L531.2,403.2 L531.7,403.4 L532.2,403.6 L532.7,403.8 L533.2,404.0 L533.7,404.2 L534.2,404.4 
		L534.8,404.6 L535.3,404.7 L535.8,404.9 L536.3,405.1 L536.8,405.3 L537.3,405.5 L537.8,405.7 L538.3,405.8 
		L538.8,406.0 L539.3,406.2 L539.8,406.4 L540.3,406.5 L540.8,406.7 L541.3,406.9 L541.8,407.0 L542.3,407.2 
		L542.8,407.4 L543.3,407.5 L543.8,407.7 L544.3,407.8 L544.8,408.0 L545.3,408.2 L545.8,408.3 L546.3,408.5 
		L546.8,408.6 L547.3,408.8 L547.8,408.9 L548.3,409.1 L548.8,409.2 L549.3,409.4 L549.8,409.5 L550.3,409.7 
		L550.9,409.8 L551.4,410.0 L551.9,410.1 L552.4,410.2 L552.9,410.4 L553.4,410.5 L553.9,410.6 L554.4,410.8 
		L554.9,410.9 L555.4,411.0 L555.9,411.2 L556.4,411.3 L556.9,411.4 L557.4,411.6 L557.9,411.7 L558.4,411.8 
		L558.9,411.9 L559.4,412.0 L559.9,412.2 L560.4,412.3 L560.9,412.4 L561.4,412.5 L561.9,412.6 L562.4,412.8 
		L562.9,412.9 L563.4,413.0 L563.9,413.1 L564.4,413.2 L564.9,413.3 L565.4,413.4 L565.9,413.5 L566.4,413.6 
		L567.0,413.7 L567.5,413.8 L568.0,413.9 L568.5,414.1 L569.0,414.2 L569.5,414.3 L570.0,414.4 L570.5,414.4 
		L571.0,414.5 L571.5,414.6 L572.0,414.7 L572.5,414.8 L573.0,414.9 L573.5,415.0 L574.0,415.1 L574.5,415.2 
		L575.0,415.3 '></path>
</g>
	</g>
<g style="fill:none; color:black; stroke:currentColor; stroke-width:1.00; stroke-linecap:butt; stroke-linejoin:miter">
	<path  d='M71.9,16.7 L71.9,422.4 L575.0,422.4 L575.0,16.7 L71.9,16.7 Z '></path>
</g>
</svg>

