<?xml version="1.0" encoding="UTF-8" standalone="no"?>
<!-- Created with Inkscape (http://www.inkscape.org/) -->
<!--
  Copyright (c) 2010, 2023 Contributors to the Eclipse Foundation

  See the NOTICE file(s) distributed with this work for additional
  information regarding copyright ownership.

  This program and the accompanying materials are made available under the terms
  of the MIT License which is available at https://opensource.org/licenses/MIT

  SPDX-License-Identifier: MIT
-->

<svg
   xmlns:dc="http://purl.org/dc/elements/1.1/"
   xmlns:cc="http://creativecommons.org/ns#"
   xmlns:rdf="http://www.w3.org/1999/02/22-rdf-syntax-ns#"
   xmlns:svg="http://www.w3.org/2000/svg"
   xmlns="http://www.w3.org/2000/svg"
   xmlns:sodipodi="http://sodipodi.sourceforge.net/DTD/sodipodi-0.dtd"
   xmlns:inkscape="http://www.inkscape.org/namespaces/inkscape"
   width="1000"
   height="1000"
   id="svg2"
   version="1.1"
   inkscape:version="0.47 r22583"
   sodipodi:docname="chi_logo.svg"
   inkscape:export-filename="chi_logo_500x500.png"
   inkscape:export-xdpi="45"
   inkscape:export-ydpi="45">
  <defs
     id="defs4">
    <inkscape:perspective
       sodipodi:type="inkscape:persp3d"
       inkscape:vp_x="0 : 526.18109 : 1"
       inkscape:vp_y="0 : 1000 : 0"
       inkscape:vp_z="744.09448 : 526.18109 : 1"
       inkscape:persp3d-origin="372.04724 : 350.78739 : 1"
       id="perspective10" />
    <inkscape:perspective
       id="perspective3619"
       inkscape:persp3d-origin="0.5 : 0.33333333 : 1"
       inkscape:vp_z="1 : 0.5 : 1"
       inkscape:vp_y="0 : 1000 : 0"
       inkscape:vp_x="0 : 0.5 : 1"
       sodipodi:type="inkscape:persp3d" />
    <inkscape:perspective
       id="perspective3641"
       inkscape:persp3d-origin="0.5 : 0.33333333 : 1"
       inkscape:vp_z="1 : 0.5 : 1"
       inkscape:vp_y="0 : 1000 : 0"
       inkscape:vp_x="0 : 0.5 : 1"
       sodipodi:type="inkscape:persp3d" />
    <inkscape:perspective
       id="perspective3664"
       inkscape:persp3d-origin="0.5 : 0.33333333 : 1"
       inkscape:vp_z="1 : 0.5 : 1"
       inkscape:vp_y="0 : 1000 : 0"
       inkscape:vp_x="0 : 0.5 : 1"
       sodipodi:type="inkscape:persp3d" />
    <inkscape:perspective
       id="perspective3664-1"
       inkscape:persp3d-origin="0.5 : 0.33333333 : 1"
       inkscape:vp_z="1 : 0.5 : 1"
       inkscape:vp_y="0 : 1000 : 0"
       inkscape:vp_x="0 : 0.5 : 1"
       sodipodi:type="inkscape:persp3d" />
    <inkscape:perspective
       id="perspective3664-2"
       inkscape:persp3d-origin="0.5 : 0.33333333 : 1"
       inkscape:vp_z="1 : 0.5 : 1"
       inkscape:vp_y="0 : 1000 : 0"
       inkscape:vp_x="0 : 0.5 : 1"
       sodipodi:type="inkscape:persp3d" />
    <inkscape:perspective
       id="perspective3704"
       inkscape:persp3d-origin="0.5 : 0.33333333 : 1"
       inkscape:vp_z="1 : 0.5 : 1"
       inkscape:vp_y="0 : 1000 : 0"
       inkscape:vp_x="0 : 0.5 : 1"
       sodipodi:type="inkscape:persp3d" />
    <inkscape:perspective
       id="perspective3726"
       inkscape:persp3d-origin="0.5 : 0.33333333 : 1"
       inkscape:vp_z="1 : 0.5 : 1"
       inkscape:vp_y="0 : 1000 : 0"
       inkscape:vp_x="0 : 0.5 : 1"
       sodipodi:type="inkscape:persp3d" />
    <inkscape:perspective
       id="perspective3750"
       inkscape:persp3d-origin="0.5 : 0.33333333 : 1"
       inkscape:vp_z="1 : 0.5 : 1"
       inkscape:vp_y="0 : 1000 : 0"
       inkscape:vp_x="0 : 0.5 : 1"
       sodipodi:type="inkscape:persp3d" />
    <inkscape:perspective
       id="perspective3750-9"
       inkscape:persp3d-origin="0.5 : 0.33333333 : 1"
       inkscape:vp_z="1 : 0.5 : 1"
       inkscape:vp_y="0 : 1000 : 0"
       inkscape:vp_x="0 : 0.5 : 1"
       sodipodi:type="inkscape:persp3d" />
    <inkscape:perspective
       id="perspective3750-5"
       inkscape:persp3d-origin="0.5 : 0.33333333 : 1"
       inkscape:vp_z="1 : 0.5 : 1"
       inkscape:vp_y="0 : 1000 : 0"
       inkscape:vp_x="0 : 0.5 : 1"
       sodipodi:type="inkscape:persp3d" />
    <inkscape:perspective
       id="perspective3794"
       inkscape:persp3d-origin="0.5 : 0.33333333 : 1"
       inkscape:vp_z="1 : 0.5 : 1"
       inkscape:vp_y="0 : 1000 : 0"
       inkscape:vp_x="0 : 0.5 : 1"
       sodipodi:type="inkscape:persp3d" />
    <inkscape:perspective
       id="perspective3818"
       inkscape:persp3d-origin="0.5 : 0.33333333 : 1"
       inkscape:vp_z="1 : 0.5 : 1"
       inkscape:vp_y="0 : 1000 : 0"
       inkscape:vp_x="0 : 0.5 : 1"
       sodipodi:type="inkscape:persp3d" />
  </defs>
  <sodipodi:namedview
     id="base"
     pagecolor="#ffffff"
     bordercolor="#666666"
     borderopacity="1.0"
     inkscape:pageopacity="0.0"
     inkscape:pageshadow="2"
     inkscape:zoom="0.49497475"
     inkscape:cx="608.26784"
     inkscape:cy="427.62844"
     inkscape:document-units="px"
     inkscape:current-layer="layer1"
     showgrid="false"
     inkscape:window-width="1407"
     inkscape:window-height="1080"
     inkscape:window-x="382"
     inkscape:window-y="0"
     inkscape:window-maximized="0" />
  <metadata
     id="metadata7">
    <rdf:RDF>
      <cc:Work
         rdf:about="">
        <dc:format>image/svg+xml</dc:format>
        <dc:type
           rdf:resource="http://purl.org/dc/dcmitype/StillImage" />
        <dc:title></dc:title>
      </cc:Work>
    </rdf:RDF>
  </metadata>
  <g
     inkscape:label="Layer 1"
     inkscape:groupmode="layer"
     id="layer1"
     transform="translate(0,-52.36218)">
    <rect
       style="fill:#b35a00;fill-opacity:1;stroke:none"
       id="rect2816"
       width="1000"
       height="400"
       x="0"
       y="652.36212" />
    <rect
       style="fill:#b35a00;fill-opacity:1;stroke:none"
       id="rect2816-0"
       width="100"
       height="400"
       x="170"
       y="252.36218" />
    <path
       style="fill:#804000;fill-opacity:1;stroke:none"
       d="m 0,352.36218 300,300 -300,0 0,-300 z"
       id="rect2816-0-5"
       sodipodi:nodetypes="cccc" />
    <rect
       style="fill:#804000;fill-opacity:1;stroke:none"
       id="rect2816-0-6"
       width="200"
       height="300"
       x="200"
       y="752.36218" />
    <rect
       style="fill:#202020;fill-opacity:1;stroke:#804000;stroke-width:10;stroke-miterlimit:4;stroke-opacity:1;stroke-dasharray:none"
       id="rect2816-0-6-5"
       width="190"
       height="240"
       x="655"
       y="732.36218" />
    <path
       sodipodi:type="arc"
       style="fill:#565656;fill-opacity:1;stroke:none"
       id="path3740"
       sodipodi:cx="382.85715"
       sodipodi:cy="254.28572"
       sodipodi:rx="157.14285"
       sodipodi:ry="62.857143"
       d="m 540,254.28572 c 0,34.71504 -70.35525,62.85714 -157.14285,62.85714 -86.7876,0 -157.14286,-28.1421 -157.14286,-62.85714 0,-34.71504 70.35526,-62.85714 157.14286,-62.85714 86.7876,0 157.14285,28.1421 157.14285,62.85714 z"
       transform="matrix(0.95454548,0,0,1.0340909,-45.454559,-10.59237)" />
    <path
       sodipodi:type="arc"
       style="fill:#565656;fill-opacity:1;stroke:none"
       id="path3740-4"
       sodipodi:cx="382.85715"
       sodipodi:cy="254.28572"
       sodipodi:rx="157.14285"
       sodipodi:ry="62.857143"
       d="m 540,254.28572 c 0,34.71504 -70.35525,62.85714 -157.14285,62.85714 -86.7876,0 -157.14286,-28.1421 -157.14286,-62.85714 0,-34.71504 70.35526,-62.85714 157.14286,-62.85714 86.7876,0 157.14285,28.1421 157.14285,62.85714 z"
       transform="translate(29.999993,-54.780685)" />
    <path
       sodipodi:type="arc"
       style="fill:#565656;fill-opacity:1;stroke:none"
       id="path3740-8"
       sodipodi:cx="382.85715"
       sodipodi:cy="254.28572"
       sodipodi:rx="157.14285"
       sodipodi:ry="62.857143"
       d="m 540,254.28572 c 0,34.71504 -70.35525,62.85714 -157.14285,62.85714 -86.7876,0 -157.14286,-28.1421 -157.14286,-62.85714 0,-34.71504 70.35526,-62.85714 157.14286,-62.85714 86.7876,0 157.14285,28.1421 157.14285,62.85714 z"
       transform="translate(118.57141,-27.637827)" />
    <path
       sodipodi:type="arc"
       style="fill:#565656;fill-opacity:1;stroke:none"
       id="path3740-43"
       sodipodi:cx="382.85715"
       sodipodi:cy="254.28572"
       sodipodi:rx="157.14285"
       sodipodi:ry="62.857143"
       d="m 540,254.28572 c 0,34.71504 -70.35525,62.85714 -157.14285,62.85714 -86.7876,0 -157.14286,-28.1421 -157.14286,-62.85714 0,-34.71504 70.35526,-62.85714 157.14286,-62.85714 86.7876,0 157.14285,28.1421 157.14285,62.85714 z"
       transform="translate(171.42855,-111.92354)" />
    <path
       sodipodi:type="arc"
       style="fill:#000000;fill-opacity:1;stroke:none"
       id="path3782"
       sodipodi:cx="371.42856"
       sodipodi:cy="872.85712"
       sodipodi:rx="21.428572"
       sodipodi:ry="21.428572"
       d="m 392.85713,872.85712 a 21.428572,21.428572 0 1 1 -42.85714,0 21.428572,21.428572 0 1 1 42.85714,0 z"
       transform="matrix(1.1666667,0,0,1.1666667,-83.333329,-90.971153)" />
    <path
       style="fill:#804000;fill-opacity:1;stroke:none"
       d="m 350,352.36218 300,300 -300,0 0,-300 z"
       id="rect2816-0-5-1"
       sodipodi:nodetypes="cccc" />
    <path
       sodipodi:nodetypes="cccc"
       id="path3808"
       d="m 700,352.36218 300,300 -300,0 0,-300 z"
       style="fill:#804000;fill-opacity:1;stroke:none" />
    <path
       sodipodi:type="arc"
       style="fill:#565656;fill-opacity:1;stroke:none"
       id="path3740-43-2"
       sodipodi:cx="382.85715"
       sodipodi:cy="254.28572"
       sodipodi:rx="157.14285"
       sodipodi:ry="62.857143"
       d="m 540,254.28572 c 0,34.71504 -70.35525,62.85714 -157.14285,62.85714 -86.7876,0 -157.14286,-28.1421 -157.14286,-62.85714 0,-34.71504 70.35526,-62.85714 157.14286,-62.85714 86.7876,0 157.14285,28.1421 157.14285,62.85714 z"
       transform="translate(299.99999,-73.352112)" />
  </g>
</svg>
