WARNING: File "cif2cif/simplify_values.cif": Semantic warning at line 244, column 18: The switch expression has only one case, which is deprecated.
WARNING: File "cif2cif/simplify_values.cif": Semantic warning at line 248, column 18: The switch expression has only one case, which is deprecated.
WARNING: File "cif2cif/simplify_values.cif": Semantic warning at line 259, column 20: Switch "else" is superfluous, as all values already have a "case".
WARNING: File "cif2cif/simplify_values.cif": Semantic warning at line 264, column 20: Switch "else" is superfluous, as all values already have a "case".
WARNING: File "cif2cif/simplify_values.cif": Semantic warning at line 277, column 18: The switch expression has only one case, which is deprecated.
WARNING: File "cif2cif/simplify_values.cif": Semantic warning at line 281, column 18: The switch expression has only one case, which is deprecated.
WARNING: File "cif2cif/simplify_values.cif": Semantic warning at line 1180, column 3: Duplicate state invariant.
WARNING: File "cif2cif/simplify_values.cif": Semantic warning at line 1190, column 3: Duplicate state invariant.
WARNING: File "cif2cif/simplify_values.cif": Semantic warning at line 1203, column 3: Duplicate state invariant.
WARNING: File "cif2cif/simplify_values.cif": Semantic warning at line 1216, column 3: Duplicate state invariant.
WARNING: File "cif2cif/simplify_values.cif": Semantic warning at line 1229, column 3: Duplicate state invariant.
WARNING: File "cif2cif/simplify_values.cif": Semantic warning at line 1242, column 17: The switch expression has only one case, which is deprecated.
WARNING: File "cif2cif/simplify_values.cif": Semantic warning at line 1245, column 17: The switch expression has only one case, which is deprecated.
WARNING: File "cif2cif/simplify_values.cif": Semantic warning at line 1258, column 1: Duplicate state invariant.
WARNING: File "cif2cif/simplify_values.cif": Semantic warning at line 1261, column 15: Duplicate state invariant.
WARNING: File "cif2cif/simplify_values.cif": Semantic warning at line 1262, column 15: Duplicate state invariant.
WARNING: File "cif2cif/simplify_values.cif": Semantic warning at line 1263, column 15: Duplicate state invariant.
WARNING: File "cif2cif/simplify_values.cif": Semantic warning at line 1264, column 15: Duplicate state invariant.
WARNING: File "cif2cif/simplify_values.cif": Semantic warning at line 1269, column 17: Duplicate state invariant.
WARNING: File "cif2cif/simplify_values.cif": Semantic warning at line 1270, column 17: Duplicate state invariant.
WARNING: File "cif2cif/simplify_values.cif": Semantic warning at line 1271, column 17: Duplicate state invariant.
WARNING: File "cif2cif/simplify_values.cif": Semantic warning at line 1272, column 17: Duplicate state invariant.
WARNING: File "cif2cif/simplify_values.cif": Semantic warning at line 1276, column 15: Duplicate state invariant.
WARNING: File "cif2cif/simplify_values.cif": Semantic warning at line 1277, column 15: Duplicate state invariant.
WARNING: File "cif2cif/simplify_values.cif": Semantic warning at line 1278, column 15: Duplicate state invariant.
WARNING: File "cif2cif/simplify_values.cif": Semantic warning at line 1279, column 15: Duplicate state invariant.
WARNING: File "cif2cif/simplify_values.cif": Semantic warning at line 1284, column 17: Duplicate state invariant.
WARNING: File "cif2cif/simplify_values.cif": Semantic warning at line 1285, column 17: Duplicate state invariant.
WARNING: File "cif2cif/simplify_values.cif": Semantic warning at line 1286, column 17: Duplicate state invariant.
WARNING: File "cif2cif/simplify_values.cif": Semantic warning at line 1287, column 17: Duplicate state invariant.
WARNING: File "cif2cif/simplify_values.cif": Semantic warning at line 1291, column 15: Duplicate state invariant.
WARNING: File "cif2cif/simplify_values.cif": Semantic warning at line 1292, column 15: Duplicate state invariant.
WARNING: File "cif2cif/simplify_values.cif": Semantic warning at line 1293, column 15: Duplicate state invariant.
WARNING: File "cif2cif/simplify_values.cif": Semantic warning at line 1294, column 15: Duplicate state invariant.
WARNING: File "cif2cif/simplify_values.cif": Semantic warning at line 1299, column 17: Duplicate state invariant.
WARNING: File "cif2cif/simplify_values.cif": Semantic warning at line 1300, column 17: Duplicate state invariant.
WARNING: File "cif2cif/simplify_values.cif": Semantic warning at line 1301, column 17: Duplicate state invariant.
WARNING: File "cif2cif/simplify_values.cif": Semantic warning at line 1302, column 17: Duplicate state invariant.
