Reading CIF file "datasynth/bdd_dbg_maxpaths.cif".
Preprocessing CIF specification.
Converting CIF specification to internal format.

CIF variables and location pointers:
  Nr     Kind               Type           Name  Group  BDD vars  CIF values  BDD values  Values used
  -----  -----------------  -------------  ----  -----  --------  ----------  ----------  -----------
  1      discrete variable  int[0..1,024]  p.x   0      11 * 2    1025 * 2    2048 * 2    ~50%
  -----  -----------------  -------------  ----  -----  --------  ----------  ----------  -----------
  Total                                          1      22        2050        4096        ~50%

Skipping variable ordering: only one variable present.

Starting data-based synthesis.

Invariant (components state plant inv):      true
Invariant (locations state plant invariant): true
Invariant (system state plant invariant):    true

Invariant (component state req invariant):   p.x = 1 or (p.x = 3 or p.x = 9) or (p.x = 11 or (p.x = 5 or p.x = 7))
Invariant (components state req invariant):  p.x = 1 or (p.x = 3 or p.x = 9) or (p.x = 11 or (p.x = 5 or p.x = 7))
Invariant (locations state req invariant):   true
Invariant (system state req invariant):      p.x = 1 or (p.x = 3 or p.x = 9) or (p.x = 11 or (p.x = 5 or p.x = 7))

Initial   (discrete variable 0):             p.x = 5
Initial   (discrete variables):              p.x = 5
Initial   (components init predicate):       true
Initial   (aut/locs init predicate):         true
Initial   (auts/locs init predicate):        true
Initial   (uncontrolled system):             p.x = 5
Initial   (system, combined init/plant inv): p.x = 5
Initial   (system, combined init/state inv): p.x = 5

Marked    (components marker predicate):     true
Marked    (aut/locs marker predicate):       true
Marked    (auts/locs marker predicate):      true
Marked    (uncontrolled system):             true
Marked    (system, combined mark/plant inv): true
Marked    (system, combined mark/state inv): p.x = 1 or (p.x = 3 or p.x = 9) or (p.x = 11 or (p.x = 5 or p.x = 7))

State/event exclusion plants:
  None

State/event exclusion requirements:
  None

Uncontrolled system:
  State: (controlled-behavior: ?)

Restricting behavior using state/event exclusion plants.

Initialized controlled-behavior predicate: true.
Initialized controlled-initialization predicate: p.x = 5.

Restricting behavior using state requirements.
Controlled behavior: true -> p.x = 1 or (p.x = 3 or p.x = 9) or (p.x = 11 or (p.x = 5 or p.x = 7)) [state requirements: p.x = 1 or (p.x = 3 or p.x = 9) or (p.x = 11 or (p.x = 5 or p.x = 7))].

Extending controlled-behavior predicate using variable ranges.

Restricting behavior using state/event exclusion requirements.

Round 1: started.

Round 1: computing backward controlled-behavior predicate.
Backward controlled-behavior: true [marker predicate]
Backward controlled-behavior: true -> p.x = 1 or (p.x = 3 or p.x = 9) or (p.x = 11 or (p.x = 5 or p.x = 7)) [restricted to current/previous controlled-behavior predicate: p.x = 1 or (p.x = 3 or p.x = 9) or (p.x = 11 or (p.x = 5 or p.x = 7))]
Backward controlled-behavior: p.x = 1 or (p.x = 3 or p.x = 9) or (p.x = 11 or (p.x = 5 or p.x = 7)) [fixed point].

Round 1: computing backward uncontrolled bad-state predicate.
Backward uncontrolled bad-state: <bdd 10n 16p> [current/previous controlled behavior predicate]

Round 1: computing forward controlled-behavior predicate.
Forward controlled-behavior: p.x = 5 [initialization predicate]
Controlled behavior: p.x = 1 or (p.x = 3 or p.x = 9) or (p.x = 11 or (p.x = 5 or p.x = 7)) -> p.x = 5.

Round 1: finished, need another round.

Round 2: started.

Round 2: computing backward controlled-behavior predicate.
Backward controlled-behavior: true [marker predicate]
Backward controlled-behavior: true -> p.x = 5 [restricted to current/previous controlled-behavior predicate: p.x = 5]
Backward controlled-behavior: p.x = 5 [fixed point].

Round 2: computing backward uncontrolled bad-state predicate.
Backward uncontrolled bad-state: <bdd 11n 11p> [current/previous controlled behavior predicate]

Round 2: finished, controlled behavior is stable.

Computing controlled system guards.

Final synthesis result:
  State: (controlled-behavior: p.x = 5)

Controlled system: exactly 1 state.

Initial (synthesis result):            p.x = 5
Initial (uncontrolled system):         p.x = 5
Initial (controlled system):           p.x = 5
Initial (removed by supervisor):       false
Initial (added by supervisor):         true

Constructing output CIF specification.
Writing output CIF file "datasynth/bdd_dbg_maxpaths.ctrlsys.real.cif".
