Reading CIF file "datasynth/invalid4.cif".
Preprocessing CIF specification.
Converting CIF specification to internal format.

CIF variables and location pointers:
  Nr     Kind               Type       Name  Group  BDD vars  CIF values  BDD values  Values used
  -----  -----------------  ---------  ----  -----  --------  ----------  ----------  -----------
  1      discrete variable  int[0..5]  p.v1  0      3 * 2     6 * 2       8 * 2       75%
  2      discrete variable  int[0..5]  p.v2  1      3 * 2     6 * 2       8 * 2       75%
  -----  -----------------  ---------  ----  -----  --------  ----------  ----------  -----------
  Total                                      2      12        24          32          75%

Applying variable ordering:
  Applying 4 orderers, sequentially:
    Applying model variable order:
      Effect: both

    Applying DCSH algorithm:
      Metric: wes
      Relations: legacy
      Effect: var-order
      Number of hyper-edges: 1

      Applying Weighted Cuthill-McKee algorithm:
        Node finder: george-liu
        Relations: legacy
        Effect: var-order
        Number of graph edges: 0

        Skipping algorithm: no graph edges.

      Found new best variable order.

      Applying Sloan algorithm:
        Relations: legacy
        Effect: var-order
        Number of graph edges: 0

        Skipping algorithm: no graph edges.

      Applying 2 orderers, sequentially:
        Applying Weighted Cuthill-McKee algorithm:
          Node finder: george-liu
          Relations: legacy
          Effect: var-order
          Number of graph edges: 0

          Skipping algorithm: no graph edges.

        Reversing the variable order:
          Relations: legacy
          Effect: var-order
          Number of hyper-edges: 1

          Total span:   0 (total)   0.00 (avg/edge) / WES:   0.500000 (total)   0.500000 (avg/edge) [before]
          Total span:   0 (total)   0.00 (avg/edge) / WES:   0.500000 (total)   0.500000 (avg/edge) [reversed]

      Found new best variable order.

      Applying 2 orderers, sequentially:
        Applying Sloan algorithm:
          Relations: legacy
          Effect: var-order
          Number of graph edges: 0

          Skipping algorithm: no graph edges.

        Reversing the variable order:
          Relations: legacy
          Effect: var-order
          Number of hyper-edges: 1

          Total span:   0 (total)   0.00 (avg/edge) / WES:   0.500000 (total)   0.500000 (avg/edge) [before]
          Total span:   0 (total)   0.00 (avg/edge) / WES:   0.500000 (total)   0.500000 (avg/edge) [reversed]

    Applying FORCE algorithm:
      Metric: total-span
      Relations: linearized
      Effect: var-order
      Number of hyper-edges: 0
      Maximum number of iterations: 10

      Skipping algorithm: no hyper-edges.

    Applying sliding window algorithm:
      Size: 4
      Metric: total-span
      Relations: linearized
      Effect: var-order
      Number of hyper-edges: 0
      Window length: 2

      Skipping algorithm: no hyper-edges.

Variable order changed.

CIF variables and location pointers:
  Nr     Kind               Type       Name  Group  BDD vars  CIF values  BDD values  Values used
  -----  -----------------  ---------  ----  -----  --------  ----------  ----------  -----------
  1      discrete variable  int[0..5]  p.v2  0      3 * 2     6 * 2       8 * 2       75%
  2      discrete variable  int[0..5]  p.v1  1      3 * 2     6 * 2       8 * 2       75%
  -----  -----------------  ---------  ----  -----  --------  ----------  ----------  -----------
  Total                                      2      12        24          32          75%

