DMMs of the "multilevel/alg_variable.cif" CIF specification.

Plant groups:
"","PG1","PG2","PG3"
"A","1","0","0"
"B","0","1","0"
"C","0","0","1"

Requirement groups:
"","RG1"
"requirement invariant C.c needs B.var1","1"

Plant-groups/requirement-groups relations:
"","PG1","PG2","PG3"
"RG1","1","0","1"
