Plant groups:
"","PG1","PG2","PG3","PG4","PG5","PG6","PG7","PG8","PG9","PG10"
"Lock.Side1.LampEntering","1","0","0","0","0","0","0","0","0","0"
"Lock.Side1.LampLeaving","0","1","0","0","0","0","0","0","0","0"
"Lock.Side1.EqualWater","0","0","1","0","0","0","0","0","0","0"
"Lock.Side2.LampEntering","0","0","0","1","0","0","0","0","0","0"
"Lock.Side2.LampLeaving","0","0","0","0","1","0","0","0","0","0"
"Lock.Side2.EqualWater","0","0","0","0","0","1","0","0","0","0"
"Lock.Side1.Door.Actuator","0","0","0","0","0","0","1","0","0","0"
"Lock.Side1.Door.Sensor","0","0","0","0","0","0","1","0","0","0"
"Lock.Side1.Sewer.Actuator","0","0","0","0","0","0","0","1","0","0"
"Lock.Side1.Sewer.Sensor","0","0","0","0","0","0","0","1","0","0"
"Lock.Side2.Door.Actuator","0","0","0","0","0","0","0","0","1","0"
"Lock.Side2.Door.Sensor","0","0","0","0","0","0","0","0","1","0"
"Lock.Side2.Sewer.Actuator","0","0","0","0","0","0","0","0","0","1"
"Lock.Side2.Sewer.Sensor","0","0","0","0","0","0","0","0","0","1"

Requirement groups:
"","RG1","RG2","RG3","RG4","RG5","RG6","RG7","RG8","RG9","RG10","RG11","RG12","RG13","RG14","RG15","RG16","RG17","RG18","RG19","RG20","RG21","RG22","RG23","RG24","RG25","RG26","RG27","RG28","RG29","RG30"
"requirement invariant Lock.Side1.Sewer.Sensor.On or Lock.Side1.Sewer.Actuator.Open disables Lock.Side2.Sewer.Actuator.c_open","1","0","0","0","0","0","0","0","0","0","0","0","0","0","0","0","0","0","0","0","0","0","0","0","0","0","0","0","0","0"
"requirement invariant not Lock.Side1.Door.Sensor.Closed or Lock.Side1.Door.Actuator.Opening disables Lock.Side2.Sewer.Actuator.c_open","0","1","0","0","0","0","0","0","0","0","0","0","0","0","0","0","0","0","0","0","0","0","0","0","0","0","0","0","0","0"
"requirement invariant Lock.Side1.Sewer.Sensor.On or Lock.Side1.Sewer.Actuator.Open disables Lock.Side2.Door.Actuator.c_on_open","0","0","1","0","0","0","0","0","0","0","0","0","0","0","0","0","0","0","0","0","0","0","0","0","0","0","0","0","0","0"
"requirement invariant not Lock.Side1.Door.Sensor.Closed or Lock.Side1.Door.Actuator.Opening disables Lock.Side2.Door.Actuator.c_on_open","0","0","0","1","0","0","0","0","0","0","0","0","0","0","0","0","0","0","0","0","0","0","0","0","0","0","0","0","0","0"
"requirement invariant Lock.Side2.Sewer.Sensor.On or Lock.Side2.Sewer.Actuator.Open disables Lock.Side1.Sewer.Actuator.c_open","0","0","0","0","1","0","0","0","0","0","0","0","0","0","0","0","0","0","0","0","0","0","0","0","0","0","0","0","0","0"
"requirement invariant not Lock.Side2.Door.Sensor.Closed or Lock.Side2.Door.Actuator.Opening disables Lock.Side1.Sewer.Actuator.c_open","0","0","0","0","0","1","0","0","0","0","0","0","0","0","0","0","0","0","0","0","0","0","0","0","0","0","0","0","0","0"
"requirement invariant Lock.Side2.Sewer.Sensor.On or Lock.Side2.Sewer.Actuator.Open disables Lock.Side1.Door.Actuator.c_on_open","0","0","0","0","0","0","1","0","0","0","0","0","0","0","0","0","0","0","0","0","0","0","0","0","0","0","0","0","0","0"
"requirement invariant not Lock.Side2.Door.Sensor.Closed or Lock.Side2.Door.Actuator.Opening disables Lock.Side1.Door.Actuator.c_on_open","0","0","0","0","0","0","0","1","0","0","0","0","0","0","0","0","0","0","0","0","0","0","0","0","0","0","0","0","0","0"
"requirement invariant Lock.Side1.EqualWater.Off disables Lock.Side1.Door.Actuator.c_on_open","0","0","0","0","0","0","0","0","1","0","0","0","0","0","0","0","0","0","0","0","0","0","0","0","0","0","0","0","0","0"
"requirement invariant Lock.Side1.LampLeaving.Green disables Lock.Side1.LampEntering.c_green","0","0","0","0","0","0","0","0","0","1","0","0","0","0","0","0","0","0","0","0","0","0","0","0","0","0","0","0","0","0"
"requirement invariant not Lock.Side1.Door.Sensor.Open disables Lock.Side1.LampEntering.c_green","0","0","0","0","0","0","0","0","0","0","1","0","0","0","0","0","0","0","0","0","0","0","0","0","0","0","0","0","0","0"
"requirement invariant not Lock.Side1.Door.Actuator.Rest disables Lock.Side1.LampEntering.c_green","0","0","0","0","0","0","0","0","0","0","0","1","0","0","0","0","0","0","0","0","0","0","0","0","0","0","0","0","0","0"
"requirement invariant not Lock.Side1.LampEntering.Red disables Lock.Side1.Door.Actuator.c_on_close","0","0","0","0","0","0","0","0","0","0","0","0","1","0","0","0","0","0","0","0","0","0","0","0","0","0","0","0","0","0"
"requirement invariant not Lock.Side1.LampEntering.Red disables Lock.Side1.Door.Actuator.c_on_open","0","0","0","0","0","0","0","0","0","0","0","0","0","1","0","0","0","0","0","0","0","0","0","0","0","0","0","0","0","0"
"requirement invariant not Lock.Side1.LampLeaving.Red disables Lock.Side1.Door.Actuator.c_on_close","0","0","0","0","0","0","0","0","0","0","0","0","0","0","1","0","0","0","0","0","0","0","0","0","0","0","0","0","0","0"
"requirement invariant not Lock.Side1.LampLeaving.Red disables Lock.Side1.Door.Actuator.c_on_open","0","0","0","0","0","0","0","0","0","0","0","0","0","0","0","1","0","0","0","0","0","0","0","0","0","0","0","0","0","0"
"requirement invariant Lock.Side1.LampEntering.Green disables Lock.Side1.LampLeaving.c_green","0","0","0","0","0","0","0","0","0","0","0","0","0","0","0","0","1","0","0","0","0","0","0","0","0","0","0","0","0","0"
"requirement invariant not Lock.Side1.Door.Sensor.Open disables Lock.Side1.LampLeaving.c_green","0","0","0","0","0","0","0","0","0","0","0","0","0","0","0","0","0","1","0","0","0","0","0","0","0","0","0","0","0","0"
"requirement invariant not Lock.Side1.Door.Actuator.Rest disables Lock.Side1.LampLeaving.c_green","0","0","0","0","0","0","0","0","0","0","0","0","0","0","0","0","0","0","1","0","0","0","0","0","0","0","0","0","0","0"
"requirement invariant Lock.Side2.EqualWater.Off disables Lock.Side2.Door.Actuator.c_on_open","0","0","0","0","0","0","0","0","0","0","0","0","0","0","0","0","0","0","0","1","0","0","0","0","0","0","0","0","0","0"
"requirement invariant Lock.Side2.LampLeaving.Green disables Lock.Side2.LampEntering.c_green","0","0","0","0","0","0","0","0","0","0","0","0","0","0","0","0","0","0","0","0","1","0","0","0","0","0","0","0","0","0"
"requirement invariant not Lock.Side2.Door.Sensor.Open disables Lock.Side2.LampEntering.c_green","0","0","0","0","0","0","0","0","0","0","0","0","0","0","0","0","0","0","0","0","0","1","0","0","0","0","0","0","0","0"
"requirement invariant not Lock.Side2.Door.Actuator.Rest disables Lock.Side2.LampEntering.c_green","0","0","0","0","0","0","0","0","0","0","0","0","0","0","0","0","0","0","0","0","0","0","1","0","0","0","0","0","0","0"
"requirement invariant not Lock.Side2.LampEntering.Red disables Lock.Side2.Door.Actuator.c_on_close","0","0","0","0","0","0","0","0","0","0","0","0","0","0","0","0","0","0","0","0","0","0","0","1","0","0","0","0","0","0"
"requirement invariant not Lock.Side2.LampEntering.Red disables Lock.Side2.Door.Actuator.c_on_open","0","0","0","0","0","0","0","0","0","0","0","0","0","0","0","0","0","0","0","0","0","0","0","0","1","0","0","0","0","0"
"requirement invariant not Lock.Side2.LampLeaving.Red disables Lock.Side2.Door.Actuator.c_on_close","0","0","0","0","0","0","0","0","0","0","0","0","0","0","0","0","0","0","0","0","0","0","0","0","0","1","0","0","0","0"
"requirement invariant not Lock.Side2.LampLeaving.Red disables Lock.Side2.Door.Actuator.c_on_open","0","0","0","0","0","0","0","0","0","0","0","0","0","0","0","0","0","0","0","0","0","0","0","0","0","0","1","0","0","0"
"requirement invariant Lock.Side2.LampEntering.Green disables Lock.Side2.LampLeaving.c_green","0","0","0","0","0","0","0","0","0","0","0","0","0","0","0","0","0","0","0","0","0","0","0","0","0","0","0","1","0","0"
"requirement invariant not Lock.Side2.Door.Sensor.Open disables Lock.Side2.LampLeaving.c_green","0","0","0","0","0","0","0","0","0","0","0","0","0","0","0","0","0","0","0","0","0","0","0","0","0","0","0","0","1","0"
"requirement invariant not Lock.Side2.Door.Actuator.Rest disables Lock.Side2.LampLeaving.c_green","0","0","0","0","0","0","0","0","0","0","0","0","0","0","0","0","0","0","0","0","0","0","0","0","0","0","0","0","0","1"

Requirement / Plant relations:
"","PG1","PG2","PG3","PG4","PG5","PG6","PG7","PG8","PG9","PG10"
"RG1","0","0","0","0","0","0","0","1","0","1"
"RG2","0","0","0","0","0","0","1","0","0","1"
"RG3","0","0","0","0","0","0","0","1","1","0"
"RG4","0","0","0","0","0","0","1","0","1","0"
"RG5","0","0","0","0","0","0","0","1","0","1"
"RG6","0","0","0","0","0","0","0","1","1","0"
"RG7","0","0","0","0","0","0","1","0","0","1"
"RG8","0","0","0","0","0","0","1","0","1","0"
"RG9","0","0","1","0","0","0","1","0","0","0"
"RG10","1","1","0","0","0","0","0","0","0","0"
"RG11","1","0","0","0","0","0","1","0","0","0"
"RG12","1","0","0","0","0","0","1","0","0","0"
"RG13","1","0","0","0","0","0","1","0","0","0"
"RG14","1","0","0","0","0","0","1","0","0","0"
"RG15","0","1","0","0","0","0","1","0","0","0"
"RG16","0","1","0","0","0","0","1","0","0","0"
"RG17","1","1","0","0","0","0","0","0","0","0"
"RG18","0","1","0","0","0","0","1","0","0","0"
"RG19","0","1","0","0","0","0","1","0","0","0"
"RG20","0","0","0","0","0","1","0","0","1","0"
"RG21","0","0","0","1","1","0","0","0","0","0"
"RG22","0","0","0","1","0","0","0","0","1","0"
"RG23","0","0","0","1","0","0","0","0","1","0"
"RG24","0","0","0","1","0","0","0","0","1","0"
"RG25","0","0","0","1","0","0","0","0","1","0"
"RG26","0","0","0","0","1","0","0","0","1","0"
"RG27","0","0","0","0","1","0","0","0","1","0"
"RG28","0","0","0","1","1","0","0","0","0","0"
"RG29","0","0","0","0","1","0","0","0","1","0"
"RG30","0","0","0","0","1","0","0","0","1","0"

Unclustered reqsPlants:
  6 2 0 0 0 0 4 0 0 0
  2 6 0 0 0 0 4 0 0 0
  0 0 1 0 0 0 1 0 0 0
  0 0 0 6 2 0 0 0 4 0
  0 0 0 2 6 0 0 0 4 0
  0 0 0 0 0 1 0 0 1 0
  4 4 1 0 0 0 13 0 2 2
  0 0 0 0 0 0 0 4 2 2
  0 0 0 4 4 1 2 2 13 0
  0 0 0 0 0 0 2 2 0 4

--- Start of clustering --
    Flow-based Markov clustering for 10 nodes.
    No bus found.
    
    subjAdjacencies:
    BlockRealMatrix{{0.0,2.0,0.0,0.0,0.0,0.0,4.0,0.0,0.0,0.0},{2.0,0.0,0.0,0.0,0.0,0.0,4.0,0.0,0.0,0.0},{0.0,0.0,0.0,0.0,0.0,0.0,1.0,0.0,0.0,0.0},{0.0,0.0,0.0,0.0,2.0,0.0,0.0,0.0,4.0,0.0},{0.0,0.0,0.0,2.0,0.0,0.0,0.0,0.0,4.0,0.0},{0.0,0.0,0.0,0.0,0.0,0.0,0.0,0.0,1.0,0.0},{4.0,4.0,1.0,0.0,0.0,0.0,0.0,0.0,2.0,2.0},{0.0,0.0,0.0,0.0,0.0,0.0,0.0,0.0,2.0,2.0},{0.0,0.0,0.0,4.0,4.0,1.0,2.0,2.0,0.0,0.0},{0.0,0.0,0.0,0.0,0.0,0.0,2.0,2.0,0.0,0.0}}
    
    probData:
    BlockRealMatrix{{0.3362030951,0.3362030951,0.0,0.0,0.0,0.0,0.1680082395,0.0,0.0007989321,0.0027546991},{0.3362030951,0.3362030951,0.0,0.0,0.0,0.0,0.1680082395,0.0,0.0007989321,0.0027546991},{0.0095911283,0.0095911283,0.5,0.0,0.0,0.0,0.2464120846,0.0,0.0011717671,0.0040402254},{0.0,0.0,0.0,0.3362030951,0.3362030951,0.0,0.0007989321,0.0027546991,0.1680082395,0.0},{0.0,0.0,0.0,0.3362030951,0.3362030951,0.0,0.0007989321,0.0027546991,0.1680082395,0.0},{0.0,0.0,0.0,0.0095911283,0.0095911283,0.5,0.0011717671,0.0040402254,0.2464120846,0.0},{0.3117116683,0.3117116683,0.5,0.0014822872,0.0014822872,0.0,0.2464120846,0.0071880649,0.0380824301,0.1313073257},{0.0,0.0,0.0,0.0048087262,0.0048087262,0.0,0.0067630934,0.4259774928,0.123544197,0.4259774928},{0.0014822872,0.0014822872,0.0,0.3117116683,0.3117116683,0.5,0.0380824301,0.1313073257,0.2464120846,0.0071880649},{0.0048087262,0.0048087262,0.0,0.0,0.0,0.0,0.123544197,0.4259774928,0.0067630934,0.4259774928}}
    
    Input to Markov:
    BlockRealMatrix{{0.3362030951,0.3362030951,0.0,0.0,0.0,0.0,0.1680082395,0.0,0.0007989321,0.0027546991},{0.3362030951,0.3362030951,0.0,0.0,0.0,0.0,0.1680082395,0.0,0.0007989321,0.0027546991},{0.0095911283,0.0095911283,0.5,0.0,0.0,0.0,0.2464120846,0.0,0.0011717671,0.0040402254},{0.0,0.0,0.0,0.3362030951,0.3362030951,0.0,0.0007989321,0.0027546991,0.1680082395,0.0},{0.0,0.0,0.0,0.3362030951,0.3362030951,0.0,0.0007989321,0.0027546991,0.1680082395,0.0},{0.0,0.0,0.0,0.0095911283,0.0095911283,0.5,0.0011717671,0.0040402254,0.2464120846,0.0},{0.3117116683,0.3117116683,0.5,0.0014822872,0.0014822872,0.0,0.2464120846,0.0071880649,0.0380824301,0.1313073257},{0.0,0.0,0.0,0.0048087262,0.0048087262,0.0,0.0067630934,0.4259774928,0.123544197,0.4259774928},{0.0014822872,0.0014822872,0.0,0.3117116683,0.3117116683,0.5,0.0380824301,0.1313073257,0.2464120846,0.0071880649},{0.0048087262,0.0048087262,0.0,0.0,0.0,0.0,0.123544197,0.4259774928,0.0067630934,0.4259774928}}
    Output from Markov:
    BlockRealMatrix{{0.0,0.0,0.0,0.0,0.0,0.0,0.0,0.0,0.0,0.0},{0.0,0.0,0.0,0.0,0.0,0.0,0.0,0.0,0.0,0.0},{0.0,0.0,0.0,0.0,0.0,0.0,0.0,0.0,0.0,0.0},{0.0,0.0,0.0,0.0,0.0,0.0,0.0,0.0,0.0,0.0},{0.0,0.0,0.0,0.0,0.0,0.0,0.0,0.0,0.0,0.0},{0.0,0.0,0.0,0.0,0.0,0.0,0.0,0.0,0.0,0.0},{1.0,1.0,1.0,0.0,0.0,0.0,1.0,0.0,0.0,0.0},{0.0,0.0,0.0,0.0,0.0,0.0,0.0,0.5,0.0,0.5},{0.0,0.0,0.0,1.0,1.0,1.0,0.0,0.0,1.0,0.0},{0.0,0.0,0.0,0.0,0.0,0.0,0.0,0.5,0.0,0.5}}
    
    Clustering-group found:
      - Grouptype CLUSTER
        Local nodes: <none>
          - Grouptype CLUSTER
            Local nodes: {0, 1, 2, 6}
          - Grouptype CLUSTER
            Local nodes: {3, 4, 5, 8}
          - Grouptype CLUSTER
            Local nodes: {7, 9}
    
    Node mapping new <- original:
      0 <- 7
      1 <- 9
      2 <- 0
      3 <- 1
      4 <- 2
      5 <- 6
      6 <- 3
      7 <- 4
      8 <- 5
      9 <- 8
    
    Shuffled nodes of groups near each other:
      - Grouptype CLUSTER
        Local nodes: <none>
          - Grouptype CLUSTER
            Local nodes: {7, 9}
          - Grouptype CLUSTER
            Local nodes: {0, 1, 2, 6}
          - Grouptype CLUSTER
            Local nodes: {3, 4, 5, 8}
--- End of clustering --

Clustered DSM for reqsPlantsDmm (for information only, this data is not actually used):
  4 2 0 0 0 0 0 0 0 2
  2 4 0 0 0 2 0 0 0 0
  0 0 6 2 0 4 0 0 0 0
  0 0 2 6 0 4 0 0 0 0
  0 0 0 0 1 1 0 0 0 0
  0 2 4 4 1 13 0 0 0 2
  0 0 0 0 0 0 6 2 0 4
  0 0 0 0 0 0 2 6 0 4
  0 0 0 0 0 0 0 0 1 1
  2 0 0 0 0 2 4 4 1 13

Make a multi-level tree node for a cluster group with multiple nodes:
        - Grouptype CLUSTER
          Local nodes: <none>
            - Grouptype CLUSTER
              Local nodes: {7, 9}
            - Grouptype CLUSTER
              Local nodes: {0, 1, 2, 6}
            - Grouptype CLUSTER
              Local nodes: {3, 4, 5, 8}
    
    Starting Algorithm 2 by searching and modifying the matrices based on group information.
        Dumping P:
               :  0  1  2  3  4  5  6  7  8  9
              0:  .  2  .  .  .  .  4  .  .  .
              1:  2  .  .  .  .  .  4  .  .  .
              2:  .  .  .  .  .  .  1  .  .  .
              3:  .  .  .  .  2  .  .  .  4  .
              4:  .  .  .  2  .  .  .  .  4  .
              5:  .  .  .  .  .  .  .  .  1  .
              6:  4  4  1  .  .  .  .  .  2  2
              7:  .  .  .  .  .  .  .  .  2  2
              8:  .  .  .  4  4  1  2  2  .  .
              9:  .  .  .  .  .  .  2  2  .  .
        
        Dumping RP:
              0: {7, 9}
              1: {6, 9}
              2: {7, 8}
              3: {6, 8}
              4: {7, 9}
              5: {7, 8}
              6: {6, 9}
              7: {6, 8}
              8: {2, 6}
              9: {0, 1}
             10: {0, 6}
             11: {0, 6}
             12: {0, 6}
             13: {0, 6}
             14: {1, 6}
             15: {1, 6}
             16: {0, 1}
             17: {1, 6}
             18: {1, 6}
             19: {5, 8}
             20: {3, 4}
             21: {3, 8}
             22: {3, 8}
             23: {3, 8}
             24: {3, 8}
             25: {4, 8}
             26: {4, 8}
             27: {3, 4}
             28: {4, 8}
             29: {4, 8}
        
        
        Found P cell (9, 6), with {1, 6} requirements:
            (9, 6): add -2
        Found P cell (7, 8), with {2, 5} requirements:
            (7, 8): add -2
        Found P cell (6, 9), but no requirements.
        Found P cell (6, 8), with {3, 7} requirements:
            (6, 8): add -2
        Found P cell (8, 7), but no requirements.
        Found P cell (8, 6), but no requirements.
        Updated Algorithm 2 data for cluster group members {0, 1, 2, 3, 4, 5, 6, 7, 8, 9}: {6, 7, 8, 9} plant groups, {1, 2, 3, 5, 6, 7} req groups.
        Updated matrices:
            Dumping P:
                   :  0  1  2  3  4  5  6  7  8  9
                  0:  .  2  .  .  .  .  4  .  .  .
                  1:  2  .  .  .  .  .  4  .  .  .
                  2:  .  .  .  .  .  .  1  .  .  .
                  3:  .  .  .  .  2  .  .  .  4  .
                  4:  .  .  .  2  .  .  .  .  4  .
                  5:  .  .  .  .  .  .  .  .  1  .
                  6:  4  4  1  .  .  .  .  .  .  2
                  7:  .  .  .  .  .  .  .  .  .  2
                  8:  .  .  .  4  4  1  2  2  .  .
                  9:  .  .  .  .  .  .  .  2  .  .
            
            Dumping RP:
                  0: {7, 9}
                  1: {}
                  2: {}
                  3: {}
                  4: {7, 9}
                  5: {}
                  6: {}
                  7: {}
                  8: {2, 6}
                  9: {0, 1}
                 10: {0, 6}
                 11: {0, 6}
                 12: {0, 6}
                 13: {0, 6}
                 14: {1, 6}
                 15: {1, 6}
                 16: {0, 1}
                 17: {1, 6}
                 18: {1, 6}
                 19: {5, 8}
                 20: {3, 4}
                 21: {3, 8}
                 22: {3, 8}
                 23: {3, 8}
                 24: {3, 8}
                 25: {4, 8}
                 26: {4, 8}
                 27: {3, 4}
                 28: {4, 8}
                 29: {4, 8}
            
        
    Make a multi-level tree node for a cluster group with multiple nodes:
            - Grouptype CLUSTER
              Local nodes: {7, 9}
        
        Starting Algorithm 2 by searching and modifying the matrices based on group information.
            Dumping P:
                   :  0  1  2  3  4  5  6  7  8  9
                  0:  .  2  .  .  .  .  4  .  .  .
                  1:  2  .  .  .  .  .  4  .  .  .
                  2:  .  .  .  .  .  .  1  .  .  .
                  3:  .  .  .  .  2  .  .  .  4  .
                  4:  .  .  .  2  .  .  .  .  4  .
                  5:  .  .  .  .  .  .  .  .  1  .
                  6:  4  4  1  .  .  .  .  .  .  2
                  7:  .  .  .  .  .  .  .  .  .  2
                  8:  .  .  .  4  4  1  2  2  .  .
                  9:  .  .  .  .  .  .  .  2  .  .
            
            Dumping RP:
                  0: {7, 9}
                  1: {}
                  2: {}
                  3: {}
                  4: {7, 9}
                  5: {}
                  6: {}
                  7: {}
                  8: {2, 6}
                  9: {0, 1}
                 10: {0, 6}
                 11: {0, 6}
                 12: {0, 6}
                 13: {0, 6}
                 14: {1, 6}
                 15: {1, 6}
                 16: {0, 1}
                 17: {1, 6}
                 18: {1, 6}
                 19: {5, 8}
                 20: {3, 4}
                 21: {3, 8}
                 22: {3, 8}
                 23: {3, 8}
                 24: {3, 8}
                 25: {4, 8}
                 26: {4, 8}
                 27: {3, 4}
                 28: {4, 8}
                 29: {4, 8}
            
            
            Found P cell (7, 9), with {0, 4} requirements:
                (7, 9): add -2
            Found P cell (9, 7), but no requirements.
            Updated Algorithm 2 data for cluster group members {7, 9}: {7, 9} plant groups, {0, 4} req groups.
            Updated matrices:
                Dumping P:
                       :  0  1  2  3  4  5  6  7  8  9
                      0:  .  2  .  .  .  .  4  .  .  .
                      1:  2  .  .  .  .  .  4  .  .  .
                      2:  .  .  .  .  .  .  1  .  .  .
                      3:  .  .  .  .  2  .  .  .  4  .
                      4:  .  .  .  2  .  .  .  .  4  .
                      5:  .  .  .  .  .  .  .  .  1  .
                      6:  4  4  1  .  .  .  .  .  .  2
                      7:  .  .  .  .  .  .  .  .  .  .
                      8:  .  .  .  4  4  1  2  2  .  .
                      9:  .  .  .  .  .  .  .  2  .  .
                
                Dumping RP:
                      0: {}
                      1: {}
                      2: {}
                      3: {}
                      4: {}
                      5: {}
                      6: {}
                      7: {}
                      8: {2, 6}
                      9: {0, 1}
                     10: {0, 6}
                     11: {0, 6}
                     12: {0, 6}
                     13: {0, 6}
                     14: {1, 6}
                     15: {1, 6}
                     16: {0, 1}
                     17: {1, 6}
                     18: {1, 6}
                     19: {5, 8}
                     20: {3, 4}
                     21: {3, 8}
                     22: {3, 8}
                     23: {3, 8}
                     24: {3, 8}
                     25: {4, 8}
                     26: {4, 8}
                     27: {3, 4}
                     28: {4, 8}
                     29: {4, 8}
                
            
        Make a multi-level tree node for a cluster group with a single node (plant group 7):
            Dumping P:
                   :  0  1  2  3  4  5  6  7  8  9
                  0:  .  2  .  .  .  .  4  .  .  .
                  1:  2  .  .  .  .  .  4  .  .  .
                  2:  .  .  .  .  .  .  1  .  .  .
                  3:  .  .  .  .  2  .  .  .  4  .
                  4:  .  .  .  2  .  .  .  .  4  .
                  5:  .  .  .  .  .  .  .  .  1  .
                  6:  4  4  1  .  .  .  .  .  .  2
                  7:  .  .  .  .  .  .  .  .  .  .
                  8:  .  .  .  4  4  1  2  2  .  .
                  9:  .  .  .  .  .  .  .  2  .  .
            
            Dumping RP:
                  0: {}
                  1: {}
                  2: {}
                  3: {}
                  4: {}
                  5: {}
                  6: {}
                  7: {}
                  8: {2, 6}
                  9: {0, 1}
                 10: {0, 6}
                 11: {0, 6}
                 12: {0, 6}
                 13: {0, 6}
                 14: {1, 6}
                 15: {1, 6}
                 16: {0, 1}
                 17: {1, 6}
                 18: {1, 6}
                 19: {5, 8}
                 20: {3, 4}
                 21: {3, 8}
                 22: {3, 8}
                 23: {3, 8}
                 24: {3, 8}
                 25: {4, 8}
                 26: {4, 8}
                 27: {3, 4}
                 28: {4, 8}
                 29: {4, 8}
            
            Tree node for singleton cluster group 7: {7} plant groups, {} req groups.
            
        ---------- DONE Created tree node for cluster with a single node.
        
        Make a multi-level tree node for a cluster group with a single node (plant group 9):
            Dumping P:
                   :  0  1  2  3  4  5  6  7  8  9
                  0:  .  2  .  .  .  .  4  .  .  .
                  1:  2  .  .  .  .  .  4  .  .  .
                  2:  .  .  .  .  .  .  1  .  .  .
                  3:  .  .  .  .  2  .  .  .  4  .
                  4:  .  .  .  2  .  .  .  .  4  .
                  5:  .  .  .  .  .  .  .  .  1  .
                  6:  4  4  1  .  .  .  .  .  .  2
                  7:  .  .  .  .  .  .  .  .  .  .
                  8:  .  .  .  4  4  1  2  2  .  .
                  9:  .  .  .  .  .  .  .  2  .  .
            
            Dumping RP:
                  0: {}
                  1: {}
                  2: {}
                  3: {}
                  4: {}
                  5: {}
                  6: {}
                  7: {}
                  8: {2, 6}
                  9: {0, 1}
                 10: {0, 6}
                 11: {0, 6}
                 12: {0, 6}
                 13: {0, 6}
                 14: {1, 6}
                 15: {1, 6}
                 16: {0, 1}
                 17: {1, 6}
                 18: {1, 6}
                 19: {5, 8}
                 20: {3, 4}
                 21: {3, 8}
                 22: {3, 8}
                 23: {3, 8}
                 24: {3, 8}
                 25: {4, 8}
                 26: {4, 8}
                 27: {3, 4}
                 28: {4, 8}
                 29: {4, 8}
            
            Tree node for singleton cluster group 9: {9} plant groups, {} req groups.
            
        ---------- DONE Created tree node for cluster with a single node.
        
    ---------- DONE Created tree node for cluster with multiple nodes.
    
    Make a multi-level tree node for a cluster group with multiple nodes:
            - Grouptype CLUSTER
              Local nodes: {0, 1, 2, 6}
        
        Starting Algorithm 2 by searching and modifying the matrices based on group information.
            Dumping P:
                   :  0  1  2  3  4  5  6  7  8  9
                  0:  .  2  .  .  .  .  4  .  .  .
                  1:  2  .  .  .  .  .  4  .  .  .
                  2:  .  .  .  .  .  .  1  .  .  .
                  3:  .  .  .  .  2  .  .  .  4  .
                  4:  .  .  .  2  .  .  .  .  4  .
                  5:  .  .  .  .  .  .  .  .  1  .
                  6:  4  4  1  .  .  .  .  .  .  2
                  7:  .  .  .  .  .  .  .  .  .  2
                  8:  .  .  .  4  4  1  2  2  .  .
                  9:  .  .  .  .  .  .  .  2  .  .
            
            Dumping RP:
                  0: {7, 9}
                  1: {}
                  2: {}
                  3: {}
                  4: {7, 9}
                  5: {}
                  6: {}
                  7: {}
                  8: {2, 6}
                  9: {0, 1}
                 10: {0, 6}
                 11: {0, 6}
                 12: {0, 6}
                 13: {0, 6}
                 14: {1, 6}
                 15: {1, 6}
                 16: {0, 1}
                 17: {1, 6}
                 18: {1, 6}
                 19: {5, 8}
                 20: {3, 4}
                 21: {3, 8}
                 22: {3, 8}
                 23: {3, 8}
                 24: {3, 8}
                 25: {4, 8}
                 26: {4, 8}
                 27: {3, 4}
                 28: {4, 8}
                 29: {4, 8}
            
            
            Found P cell (0, 1), with {9, 16} requirements:
                (0, 1): add -2
            Found P cell (0, 6), with {10, 11, 12, 13} requirements:
                (0, 6): add -4
            Found P cell (1, 0), but no requirements.
            Found P cell (1, 6), with {14, 15, 17, 18} requirements:
                (1, 6): add -4
            Found P cell (2, 6), with {8} requirements:
                (2, 6): add -1
            Found P cell (6, 0), but no requirements.
            Found P cell (6, 1), but no requirements.
            Found P cell (6, 2), but no requirements.
            Updated Algorithm 2 data for cluster group members {0, 1, 2, 6}: {0, 1, 2, 6} plant groups, {8, 9, 10, 11, 12, 13, 14, 15, 16, 17, 18} req groups.
            Updated matrices:
                Dumping P:
                       :  0  1  2  3  4  5  6  7  8  9
                      0:  .  .  .  .  .  .  .  .  .  .
                      1:  2  .  .  .  .  .  .  .  .  .
                      2:  .  .  .  .  .  .  .  .  .  .
                      3:  .  .  .  .  2  .  .  .  4  .
                      4:  .  .  .  2  .  .  .  .  4  .
                      5:  .  .  .  .  .  .  .  .  1  .
                      6:  4  4  1  .  .  .  .  .  .  2
                      7:  .  .  .  .  .  .  .  .  .  2
                      8:  .  .  .  4  4  1  2  2  .  .
                      9:  .  .  .  .  .  .  .  2  .  .
                
                Dumping RP:
                      0: {7, 9}
                      1: {}
                      2: {}
                      3: {}
                      4: {7, 9}
                      5: {}
                      6: {}
                      7: {}
                      8: {}
                      9: {}
                     10: {}
                     11: {}
                     12: {}
                     13: {}
                     14: {}
                     15: {}
                     16: {}
                     17: {}
                     18: {}
                     19: {5, 8}
                     20: {3, 4}
                     21: {3, 8}
                     22: {3, 8}
                     23: {3, 8}
                     24: {3, 8}
                     25: {4, 8}
                     26: {4, 8}
                     27: {3, 4}
                     28: {4, 8}
                     29: {4, 8}
                
            
        Make a multi-level tree node for a cluster group with a single node (plant group 0):
            Dumping P:
                   :  0  1  2  3  4  5  6  7  8  9
                  0:  .  .  .  .  .  .  .  .  .  .
                  1:  2  .  .  .  .  .  .  .  .  .
                  2:  .  .  .  .  .  .  .  .  .  .
                  3:  .  .  .  .  2  .  .  .  4  .
                  4:  .  .  .  2  .  .  .  .  4  .
                  5:  .  .  .  .  .  .  .  .  1  .
                  6:  4  4  1  .  .  .  .  .  .  2
                  7:  .  .  .  .  .  .  .  .  .  2
                  8:  .  .  .  4  4  1  2  2  .  .
                  9:  .  .  .  .  .  .  .  2  .  .
            
            Dumping RP:
                  0: {7, 9}
                  1: {}
                  2: {}
                  3: {}
                  4: {7, 9}
                  5: {}
                  6: {}
                  7: {}
                  8: {}
                  9: {}
                 10: {}
                 11: {}
                 12: {}
                 13: {}
                 14: {}
                 15: {}
                 16: {}
                 17: {}
                 18: {}
                 19: {5, 8}
                 20: {3, 4}
                 21: {3, 8}
                 22: {3, 8}
                 23: {3, 8}
                 24: {3, 8}
                 25: {4, 8}
                 26: {4, 8}
                 27: {3, 4}
                 28: {4, 8}
                 29: {4, 8}
            
            Tree node for singleton cluster group 0: {0} plant groups, {} req groups.
            
        ---------- DONE Created tree node for cluster with a single node.
        
        Make a multi-level tree node for a cluster group with a single node (plant group 1):
            Dumping P:
                   :  0  1  2  3  4  5  6  7  8  9
                  0:  .  .  .  .  .  .  .  .  .  .
                  1:  2  .  .  .  .  .  .  .  .  .
                  2:  .  .  .  .  .  .  .  .  .  .
                  3:  .  .  .  .  2  .  .  .  4  .
                  4:  .  .  .  2  .  .  .  .  4  .
                  5:  .  .  .  .  .  .  .  .  1  .
                  6:  4  4  1  .  .  .  .  .  .  2
                  7:  .  .  .  .  .  .  .  .  .  2
                  8:  .  .  .  4  4  1  2  2  .  .
                  9:  .  .  .  .  .  .  .  2  .  .
            
            Dumping RP:
                  0: {7, 9}
                  1: {}
                  2: {}
                  3: {}
                  4: {7, 9}
                  5: {}
                  6: {}
                  7: {}
                  8: {}
                  9: {}
                 10: {}
                 11: {}
                 12: {}
                 13: {}
                 14: {}
                 15: {}
                 16: {}
                 17: {}
                 18: {}
                 19: {5, 8}
                 20: {3, 4}
                 21: {3, 8}
                 22: {3, 8}
                 23: {3, 8}
                 24: {3, 8}
                 25: {4, 8}
                 26: {4, 8}
                 27: {3, 4}
                 28: {4, 8}
                 29: {4, 8}
            
            Tree node for singleton cluster group 1: {1} plant groups, {} req groups.
            
        ---------- DONE Created tree node for cluster with a single node.
        
        Make a multi-level tree node for a cluster group with a single node (plant group 2):
            Dumping P:
                   :  0  1  2  3  4  5  6  7  8  9
                  0:  .  .  .  .  .  .  .  .  .  .
                  1:  2  .  .  .  .  .  .  .  .  .
                  2:  .  .  .  .  .  .  .  .  .  .
                  3:  .  .  .  .  2  .  .  .  4  .
                  4:  .  .  .  2  .  .  .  .  4  .
                  5:  .  .  .  .  .  .  .  .  1  .
                  6:  4  4  1  .  .  .  .  .  .  2
                  7:  .  .  .  .  .  .  .  .  .  2
                  8:  .  .  .  4  4  1  2  2  .  .
                  9:  .  .  .  .  .  .  .  2  .  .
            
            Dumping RP:
                  0: {7, 9}
                  1: {}
                  2: {}
                  3: {}
                  4: {7, 9}
                  5: {}
                  6: {}
                  7: {}
                  8: {}
                  9: {}
                 10: {}
                 11: {}
                 12: {}
                 13: {}
                 14: {}
                 15: {}
                 16: {}
                 17: {}
                 18: {}
                 19: {5, 8}
                 20: {3, 4}
                 21: {3, 8}
                 22: {3, 8}
                 23: {3, 8}
                 24: {3, 8}
                 25: {4, 8}
                 26: {4, 8}
                 27: {3, 4}
                 28: {4, 8}
                 29: {4, 8}
            
            Tree node for singleton cluster group 2: {2} plant groups, {} req groups.
            
        ---------- DONE Created tree node for cluster with a single node.
        
        Make a multi-level tree node for a cluster group with a single node (plant group 6):
            Dumping P:
                   :  0  1  2  3  4  5  6  7  8  9
                  0:  .  .  .  .  .  .  .  .  .  .
                  1:  2  .  .  .  .  .  .  .  .  .
                  2:  .  .  .  .  .  .  .  .  .  .
                  3:  .  .  .  .  2  .  .  .  4  .
                  4:  .  .  .  2  .  .  .  .  4  .
                  5:  .  .  .  .  .  .  .  .  1  .
                  6:  4  4  1  .  .  .  .  .  .  2
                  7:  .  .  .  .  .  .  .  .  .  2
                  8:  .  .  .  4  4  1  2  2  .  .
                  9:  .  .  .  .  .  .  .  2  .  .
            
            Dumping RP:
                  0: {7, 9}
                  1: {}
                  2: {}
                  3: {}
                  4: {7, 9}
                  5: {}
                  6: {}
                  7: {}
                  8: {}
                  9: {}
                 10: {}
                 11: {}
                 12: {}
                 13: {}
                 14: {}
                 15: {}
                 16: {}
                 17: {}
                 18: {}
                 19: {5, 8}
                 20: {3, 4}
                 21: {3, 8}
                 22: {3, 8}
                 23: {3, 8}
                 24: {3, 8}
                 25: {4, 8}
                 26: {4, 8}
                 27: {3, 4}
                 28: {4, 8}
                 29: {4, 8}
            
            Tree node for singleton cluster group 6: {6} plant groups, {} req groups.
            
        ---------- DONE Created tree node for cluster with a single node.
        
    ---------- DONE Created tree node for cluster with multiple nodes.
    
    Make a multi-level tree node for a cluster group with multiple nodes:
            - Grouptype CLUSTER
              Local nodes: {3, 4, 5, 8}
        
        Starting Algorithm 2 by searching and modifying the matrices based on group information.
            Dumping P:
                   :  0  1  2  3  4  5  6  7  8  9
                  0:  .  2  .  .  .  .  4  .  .  .
                  1:  2  .  .  .  .  .  4  .  .  .
                  2:  .  .  .  .  .  .  1  .  .  .
                  3:  .  .  .  .  2  .  .  .  4  .
                  4:  .  .  .  2  .  .  .  .  4  .
                  5:  .  .  .  .  .  .  .  .  1  .
                  6:  4  4  1  .  .  .  .  .  .  2
                  7:  .  .  .  .  .  .  .  .  .  2
                  8:  .  .  .  4  4  1  2  2  .  .
                  9:  .  .  .  .  .  .  .  2  .  .
            
            Dumping RP:
                  0: {7, 9}
                  1: {}
                  2: {}
                  3: {}
                  4: {7, 9}
                  5: {}
                  6: {}
                  7: {}
                  8: {2, 6}
                  9: {0, 1}
                 10: {0, 6}
                 11: {0, 6}
                 12: {0, 6}
                 13: {0, 6}
                 14: {1, 6}
                 15: {1, 6}
                 16: {0, 1}
                 17: {1, 6}
                 18: {1, 6}
                 19: {5, 8}
                 20: {3, 4}
                 21: {3, 8}
                 22: {3, 8}
                 23: {3, 8}
                 24: {3, 8}
                 25: {4, 8}
                 26: {4, 8}
                 27: {3, 4}
                 28: {4, 8}
                 29: {4, 8}
            
            
            Found P cell (3, 4), with {20, 27} requirements:
                (3, 4): add -2
            Found P cell (3, 8), with {21, 22, 23, 24} requirements:
                (3, 8): add -4
            Found P cell (4, 3), but no requirements.
            Found P cell (4, 8), with {25, 26, 28, 29} requirements:
                (4, 8): add -4
            Found P cell (5, 8), with {19} requirements:
                (5, 8): add -1
            Found P cell (8, 3), but no requirements.
            Found P cell (8, 4), but no requirements.
            Found P cell (8, 5), but no requirements.
            Updated Algorithm 2 data for cluster group members {3, 4, 5, 8}: {3, 4, 5, 8} plant groups, {19, 20, 21, 22, 23, 24, 25, 26, 27, 28, 29} req groups.
            Updated matrices:
                Dumping P:
                       :  0  1  2  3  4  5  6  7  8  9
                      0:  .  2  .  .  .  .  4  .  .  .
                      1:  2  .  .  .  .  .  4  .  .  .
                      2:  .  .  .  .  .  .  1  .  .  .
                      3:  .  .  .  .  .  .  .  .  .  .
                      4:  .  .  .  2  .  .  .  .  .  .
                      5:  .  .  .  .  .  .  .  .  .  .
                      6:  4  4  1  .  .  .  .  .  .  2
                      7:  .  .  .  .  .  .  .  .  .  2
                      8:  .  .  .  4  4  1  2  2  .  .
                      9:  .  .  .  .  .  .  .  2  .  .
                
                Dumping RP:
                      0: {7, 9}
                      1: {}
                      2: {}
                      3: {}
                      4: {7, 9}
                      5: {}
                      6: {}
                      7: {}
                      8: {2, 6}
                      9: {0, 1}
                     10: {0, 6}
                     11: {0, 6}
                     12: {0, 6}
                     13: {0, 6}
                     14: {1, 6}
                     15: {1, 6}
                     16: {0, 1}
                     17: {1, 6}
                     18: {1, 6}
                     19: {}
                     20: {}
                     21: {}
                     22: {}
                     23: {}
                     24: {}
                     25: {}
                     26: {}
                     27: {}
                     28: {}
                     29: {}
                
            
        Make a multi-level tree node for a cluster group with a single node (plant group 3):
            Dumping P:
                   :  0  1  2  3  4  5  6  7  8  9
                  0:  .  2  .  .  .  .  4  .  .  .
                  1:  2  .  .  .  .  .  4  .  .  .
                  2:  .  .  .  .  .  .  1  .  .  .
                  3:  .  .  .  .  .  .  .  .  .  .
                  4:  .  .  .  2  .  .  .  .  .  .
                  5:  .  .  .  .  .  .  .  .  .  .
                  6:  4  4  1  .  .  .  .  .  .  2
                  7:  .  .  .  .  .  .  .  .  .  2
                  8:  .  .  .  4  4  1  2  2  .  .
                  9:  .  .  .  .  .  .  .  2  .  .
            
            Dumping RP:
                  0: {7, 9}
                  1: {}
                  2: {}
                  3: {}
                  4: {7, 9}
                  5: {}
                  6: {}
                  7: {}
                  8: {2, 6}
                  9: {0, 1}
                 10: {0, 6}
                 11: {0, 6}
                 12: {0, 6}
                 13: {0, 6}
                 14: {1, 6}
                 15: {1, 6}
                 16: {0, 1}
                 17: {1, 6}
                 18: {1, 6}
                 19: {}
                 20: {}
                 21: {}
                 22: {}
                 23: {}
                 24: {}
                 25: {}
                 26: {}
                 27: {}
                 28: {}
                 29: {}
            
            Tree node for singleton cluster group 3: {3} plant groups, {} req groups.
            
        ---------- DONE Created tree node for cluster with a single node.
        
        Make a multi-level tree node for a cluster group with a single node (plant group 4):
            Dumping P:
                   :  0  1  2  3  4  5  6  7  8  9
                  0:  .  2  .  .  .  .  4  .  .  .
                  1:  2  .  .  .  .  .  4  .  .  .
                  2:  .  .  .  .  .  .  1  .  .  .
                  3:  .  .  .  .  .  .  .  .  .  .
                  4:  .  .  .  2  .  .  .  .  .  .
                  5:  .  .  .  .  .  .  .  .  .  .
                  6:  4  4  1  .  .  .  .  .  .  2
                  7:  .  .  .  .  .  .  .  .  .  2
                  8:  .  .  .  4  4  1  2  2  .  .
                  9:  .  .  .  .  .  .  .  2  .  .
            
            Dumping RP:
                  0: {7, 9}
                  1: {}
                  2: {}
                  3: {}
                  4: {7, 9}
                  5: {}
                  6: {}
                  7: {}
                  8: {2, 6}
                  9: {0, 1}
                 10: {0, 6}
                 11: {0, 6}
                 12: {0, 6}
                 13: {0, 6}
                 14: {1, 6}
                 15: {1, 6}
                 16: {0, 1}
                 17: {1, 6}
                 18: {1, 6}
                 19: {}
                 20: {}
                 21: {}
                 22: {}
                 23: {}
                 24: {}
                 25: {}
                 26: {}
                 27: {}
                 28: {}
                 29: {}
            
            Tree node for singleton cluster group 4: {4} plant groups, {} req groups.
            
        ---------- DONE Created tree node for cluster with a single node.
        
        Make a multi-level tree node for a cluster group with a single node (plant group 5):
            Dumping P:
                   :  0  1  2  3  4  5  6  7  8  9
                  0:  .  2  .  .  .  .  4  .  .  .
                  1:  2  .  .  .  .  .  4  .  .  .
                  2:  .  .  .  .  .  .  1  .  .  .
                  3:  .  .  .  .  .  .  .  .  .  .
                  4:  .  .  .  2  .  .  .  .  .  .
                  5:  .  .  .  .  .  .  .  .  .  .
                  6:  4  4  1  .  .  .  .  .  .  2
                  7:  .  .  .  .  .  .  .  .  .  2
                  8:  .  .  .  4  4  1  2  2  .  .
                  9:  .  .  .  .  .  .  .  2  .  .
            
            Dumping RP:
                  0: {7, 9}
                  1: {}
                  2: {}
                  3: {}
                  4: {7, 9}
                  5: {}
                  6: {}
                  7: {}
                  8: {2, 6}
                  9: {0, 1}
                 10: {0, 6}
                 11: {0, 6}
                 12: {0, 6}
                 13: {0, 6}
                 14: {1, 6}
                 15: {1, 6}
                 16: {0, 1}
                 17: {1, 6}
                 18: {1, 6}
                 19: {}
                 20: {}
                 21: {}
                 22: {}
                 23: {}
                 24: {}
                 25: {}
                 26: {}
                 27: {}
                 28: {}
                 29: {}
            
            Tree node for singleton cluster group 5: {5} plant groups, {} req groups.
            
        ---------- DONE Created tree node for cluster with a single node.
        
        Make a multi-level tree node for a cluster group with a single node (plant group 8):
            Dumping P:
                   :  0  1  2  3  4  5  6  7  8  9
                  0:  .  2  .  .  .  .  4  .  .  .
                  1:  2  .  .  .  .  .  4  .  .  .
                  2:  .  .  .  .  .  .  1  .  .  .
                  3:  .  .  .  .  .  .  .  .  .  .
                  4:  .  .  .  2  .  .  .  .  .  .
                  5:  .  .  .  .  .  .  .  .  .  .
                  6:  4  4  1  .  .  .  .  .  .  2
                  7:  .  .  .  .  .  .  .  .  .  2
                  8:  .  .  .  4  4  1  2  2  .  .
                  9:  .  .  .  .  .  .  .  2  .  .
            
            Dumping RP:
                  0: {7, 9}
                  1: {}
                  2: {}
                  3: {}
                  4: {7, 9}
                  5: {}
                  6: {}
                  7: {}
                  8: {2, 6}
                  9: {0, 1}
                 10: {0, 6}
                 11: {0, 6}
                 12: {0, 6}
                 13: {0, 6}
                 14: {1, 6}
                 15: {1, 6}
                 16: {0, 1}
                 17: {1, 6}
                 18: {1, 6}
                 19: {}
                 20: {}
                 21: {}
                 22: {}
                 23: {}
                 24: {}
                 25: {}
                 26: {}
                 27: {}
                 28: {}
                 29: {}
            
            Tree node for singleton cluster group 8: {8} plant groups, {} req groups.
            
        ---------- DONE Created tree node for cluster with a single node.
        
    ---------- DONE Created tree node for cluster with multiple nodes.
    
---------- DONE Created tree node for cluster with multiple nodes.

Index: 0
Plant groups: {6, 7, 8, 9}
Req groups:   {1, 2, 3, 5, 6, 7}
Child nodes: 1, 4, 9

Index: 1
Plant groups: {7, 9}
Req groups:   {0, 4}
Child nodes: 2, 3

Index: 2
Plant groups: {7}
Req groups:   <none>
Child nodes: <none>

Index: 3
Plant groups: {9}
Req groups:   <none>
Child nodes: <none>

Index: 4
Plant groups: {0, 1, 2, 6}
Req groups:   {8, 9, 10, 11, 12, 13, 14, 15, 16, 17, 18}
Child nodes: 5, 6, 7, 8

Index: 5
Plant groups: {0}
Req groups:   <none>
Child nodes: <none>

Index: 6
Plant groups: {1}
Req groups:   <none>
Child nodes: <none>

Index: 7
Plant groups: {2}
Req groups:   <none>
Child nodes: <none>

Index: 8
Plant groups: {6}
Req groups:   <none>
Child nodes: <none>

Index: 9
Plant groups: {3, 4, 5, 8}
Req groups:   {19, 20, 21, 22, 23, 24, 25, 26, 27, 28, 29}
Child nodes: 10, 11, 12, 13

Index: 10
Plant groups: {3}
Req groups:   <none>
Child nodes: <none>

Index: 11
Plant groups: {4}
Req groups:   <none>
Child nodes: <none>

Index: 12
Plant groups: {5}
Req groups:   <none>
Child nodes: <none>

Index: 13
Plant groups: {8}
Req groups:   <none>
Child nodes: <none>

