//////////////////////////////////////////////////////////////////////////////
// Copyright (c) 2022, 2023 Contributors to the Eclipse Foundation
//
// See the NOTICE file(s) distributed with this work for additional
// information regarding copyright ownership.
//
// This program and the accompanying materials are made available
// under the terms of the MIT License which is available at
// https://opensource.org/licenses/MIT
//
// SPDX-License-Identifier: MIT
//////////////////////////////////////////////////////////////////////////////

Model source: Eclipse ESCET CIF data-based synthesis test models, adapted from four forks and philosophers to the
traditional number of five forks and philosophers.
