Loading CIF specification "controllercheck/no_controllables.cif"...
Preparing for the checks...

Checking for finite response...

CONCLUSION:
    [OK] The specification has finite response.
    Confluence checking was disabled, confluence property is unknown.
